0.0517478
0.042497635
0.029497623
-0.033751965
0.04549837
0.14324808
0.11774826
0.05799818
-0.085001945
-0.16025114
-0.25550175
-0.36000156
-0.31850195
-0.2845025
-0.19150162
0.04249811
0.083747864
0.12224817
0.1004982
0.099748135
-0.038002014
0.065748215
0.1737485
0.099998
-0.197752
-0.075252056
0.16449785
0.3339982
0.27799797
0.069747925
-0.31525183
-0.30150223
-0.043501377
-0.0557518
-0.36675167
-0.100251675
0.078248024
0.100997925
0.15349817
0.14724779
-0.36675215
-0.27575207
-0.04550171
0.02849865
0.2499981
-0.045502186
-0.15775204
0.07174778
0.039497852
0.07574749
-0.11275196
0.010748386
0.06524801
0.029998302
0.068748
0.0777483
0.21049833
0.22174788
0.32074785
0.18649817
0.014247894
0.052248478
0.0052480698
-0.3785019
-0.0027518272
-0.23475218
-0.19925165
0.2977481
0.34524775
0.12149811
-0.09750223
-0.13375187
-0.02475214
0.19474792
0.25874805
0.1307478
-0.03625202
-0.06875181
0.14874792
0.019498348
-0.32525253
-0.260252
0.11524773
0.3294978
0.11299801
0.12199783
0.0517478
0.091747284
0.090497494
0.060247898
0.015748024
0.07224798
0.13374805
0.10449839
0.013498306
-0.0025024414
0.11024809
0.042497635
0.06349802
0.1867485
0.2187481
0.064248085
0.12224817
0.05674839
-0.05450201
0.07149792
0.07174826
0.0717473
0.098248005
0.06024742
0.018497944
-0.012001991
-0.052502155
-0.0647521
0.11874819
0.1392479
0.012998104
0.010498047
0.018748283
0.032497883
0.17499828
0.22374773
0.09274769
0.050248146
-0.018251896
-0.041002274
-0.053002357
0.027747631
0.035998344
0.0664978
0.07224798
0.05374813
0.035998344
0.054248333
-0.018251896
0.059497833
0.082747936
0.049998283
0.08074808
0.079247475
0.09599781
0.15874767
0.07999802
0.07199812
0.11124802
0.16399813
0.11049795
0.069747925
0.14849806
0.12824774
0.03349781
0.078248024
0.08674812
0.1402483
0.017498016
-0.02575159
0.0347476
0.078748226
-0.0052518845
-0.0017523766
0.016498089
-0.013001442
0.0007481575
0.049747467
0.04949808
0.058998585
0.026998043
0.028498173
0.026747704
-0.0015015602
0.006998062
0.031248093
0.003247738
0.02249813
0.028498173
0.06349802
0.0042481422
0.015247822
-0.0045018196
0.042998314
-0.008251667
-0.012001514
0.0087480545
0.024997711
-0.025251865
0.06624794
0.08974838
-0.0012521744
0.013498306
0.02124834
0.05374813
-0.010002136
-0.065001965
-0.048002243
-0.058251858
-0.030752182
-0.02200222
-0.13825226
-0.095252514
-0.04125166
-0.0007519722
-0.061252594
-0.06875229
-0.1125021
-0.055502415
-0.028002262
0.05924797
0.052748203
0.039998055
0.09349823
0.011998177
0.028748035
-0.0012516975
-0.04000187
-0.02300167
0.050497532
0.10149813
0.11649847
0.04199791
0.054247856
0.009997845
-0.027751446
-0.02625227
-0.015501976
0.031497955
0.055498123
0.021247864
0.017248154
0.043248177
0.06674814
-0.060502052
-0.04450178
-0.008751869
-0.006251812
-0.032752037
0.0034976006
0.034247875
0.035247803
0.04399824
0.04674816
0.042747974
0.023247719
0.028748035
0.039998055
0.014997959
0.02799797
-0.002252102
-0.003501892
0.019747734
-0.030501842
0.005747795
0.011497974
0.056998253
0.08549833
0.08749819
0.04799795
0.050498486
0.0052480698
0.043997765
0.029747963
0.08799791
0.04749775
0.01749754
0.042747974
-0.015252113
0.03899765
0.057748318
0.13149786
0.12699795
0.02549839
0.09549761
0.11499834
0.118247986
0.07174778
0.05524826
0.123998165
0.1379981
0.075498104
0.073997974
0.021497726
-0.0005016327
0.015998363
0.051248074
0.045998096
0.05924797
0.075247765
0.11774826
0.2664981
0.11924791
0.05524826
0.10474825
0.1392479
0.094997406
0.12224817
0.10749817
0.051748276
0.011748314
0.07924795
0.15749788
0.15699768
0.2169981
0.16299772
0.071248055
0.06349802
0.06949806
0.06449795
0.11099768
0.08449793
0.068748474
0.00649786
0.102247715
0.07049847
-0.03575182
0.1307478
0.12874746
0.051748276
-0.024002075
-0.011752129
0.14249802
0.10874796
0.060498238
-0.04025221
-0.2205019
0.13999796
0.08749771
0.06899834
-0.01775217
0.033998013
0.13999844
0.12424803
-0.025251865
-0.108002186
0.26474762
0.055998325
0.08499813
0.40199804
0.12024784
0.15299797
0.19824839
0.16274786
0.18799782
0.1749978
0.108248234
0.095498085
0.027497768
0.13299751
0.1299982
0.17024803
0.13099766
0.112748146
0.09924841
-0.039752007
-0.015501976
0.13499784
0.09624815
0.075247765
0.009248257
0.0019979477
0.032998085
0.12449789
0.06374788
0.022497654
0.017998219
0.019498348
-0.14050198
-0.26450205
