0.008666001
0.007577502
0.007387002
0.006503002
0.0057470016
0.006101001
0.006485001
0.0069470014
0.007057001
0.0069820015
0.0065985015
0.0075435024
0.0073775006
0.006367502
0.006206001
0.006852502
0.0066520013
0.0058345012
0.005624501
0.006357001
0.0062305015
0.006503002
0.0054910015
0.005334501
0.006267001
0.006558002
0.006701002
0.006739502
0.005573502
0.0056850016
0.0052695014
0.005408001
0.0057510016
0.006332502
0.0056960015
0.005962002
0.0064485017
0.006763502
0.007255002
0.007576002
0.007352502
0.0061845016
0.005547001
0.006274502
0.008461002
0.009209502
0.008592001
0.008643501
0.008528501
0.007305001
0.008503001
0.009001002
0.008215002
0.008711002
0.008007002
0.008576002
0.006554501
0.0063885013
0.0063620014
0.0070510022
0.006365001
0.0077030016
0.008485502
0.008643501
0.008697002
0.0089110015
0.008688001
0.009102002
0.009169501
0.008052002
0.008587002
0.009438502
0.008938002
0.008509502
0.007831001
0.009602002
0.010014501
0.011044501
0.011542501
0.011618001
0.010938502
0.008907502
0.008827502
0.009462002
0.0109135015
0.010207002
0.009166002
0.009162002
0.0100110015
0.010211002
0.009073501
0.0090155015
0.010078501
0.009737502
0.008603502
0.009155502
0.010573502
0.011677002
0.012694502
0.011897001
0.011942001
0.011800001
0.0128075015
0.012824501
0.011493501
0.011448502
0.011853501
0.011524501
0.012206001
0.012165501
0.010477002
0.008742002
0.008774501
0.011153501
0.011857002
0.012085002
0.010767001
0.011596002
0.009433501
0.008356001
0.010211001
0.010968502
0.011941002
0.011220002
0.008923002
0.010304502
0.011226001
0.014503001
0.009650001
0.0084500015
0.008826002
0.0095385015
0.008192501
0.008370001
0.011059502
0.012197002
0.011742001
0.011273501
0.010378501
0.0106385015
0.010583501
0.0111460015
0.009439502
0.007653501
0.0080435015
0.008025002
0.009183502
0.009287502
0.011003002
0.009859501
0.010652502
0.010133502
0.008783502
0.008201001
0.010812501
0.014423502
0.010273501
0.009981002
0.008226002
0.009298502
0.010961002
0.011895002
0.012414502
0.011981001
0.012747002
0.013353501
0.014400001
0.0178635
0.015904501
0.012893501
0.012688502
0.013716002
0.014784502
0.014667002
0.015997
0.015396002
0.015867002
0.015250002
0.012867501
0.013114502
0.015126002
0.015522001
0.016282
0.016452502
0.016583003
0.0172345
0.013401002
0.012487502
0.012733501
0.016319502
0.017221
0.020142501
0.023057502
0.022300001
0.0221745
0.0207345
0.020834502
0.0228495
0.021207001
0.0222385
0.025385002
0.025743002
0.026308
0.026851501
0.023526002
0.022696001
0.024026
0.026556002
0.025257003
0.0234375
0.021520002
0.0188685
0.019866
0.022507502
0.024423502
0.024345001
0.0239285
0.023443501
0.0221075
0.021356001
0.021104502
0.020228501
0.019912
0.0214575
0.02322
0.024249502
0.0243235
0.022672001
0.021839503
0.021731002
0.021682002
0.0224685
0.023192503
0.023720002
0.023510002
0.023236
0.020908501
0.0196985
0.019536002
0.019337501
0.018478502
0.019900002
0.0200635
0.019846002
0.021476
0.021471001
0.021278502
0.019853503
0.019181002
0.0195975
0.019377002
0.0190795
0.018804502
0.018819503
0.0177625
0.017395502
0.015967
0.015033501
0.015699502
0.015845
0.015924502
0.015168002
0.014515501
0.0148760015
0.014795002
0.0139735015
0.014266001
0.0158595
0.016115002
0.015294502
0.0161735
0.015922002
0.015448501
0.016273001
0.017081002
0.017633501
0.016728502
0.013946001
0.014107001
0.013761002
0.014287001
0.015601001
0.014224501
0.013602002
0.012049502
0.012367502
0.010464502
0.010507002
0.011144501
0.010579502
0.009799501
0.010229502
0.0112620015
0.011173502
0.011061001
0.011520501
0.011333001
0.010606002
0.008088502
0.008656002
0.010766001
0.011167502
0.011031002
0.0112545015
0.010122501
0.009713502
0.010087501
0.012031001
0.010442502
0.010318502
0.009162501
0.0076300018
0.0077910013
0.009633002
0.009547002
0.008729502
0.008107002
0.007922501
0.008855001
0.008585501
0.0076375017
0.0071070017
0.008539501
0.008968501
0.008277502
0.008592501
0.006721002
0.0061155017
0.007922001
0.008383501
0.0078100013
0.0078380015
0.0074660014
0.007263501
0.0076220017
0.007677002
0.008029501
0.008694502
0.007985502
0.007732001
0.007930001
0.007653501
0.0065995017
0.0067185024
0.0067060012
0.0067585018
0.0075710015
0.008478502
0.008461001
0.007952502
0.007782002
0.008042002
0.008031002
0.0070710015
0.0069125015
0.007712002
0.008318001
0.008527001
0.0075550014
0.007174501
0.0075935014
0.007600501
0.0074810013
0.007417501
0.0055635013
