0.27149773
0.1724987
0.1799984
0.15799809
0.10549736
0.016498566
0.0644989
0.04349804
0.014998436
0.06499863
-0.087002754
-0.17650127
-0.22950172
-0.035001755
0.12399864
0.13299847
0.19199848
0.12249756
-0.032502174
0.18099785
0.103497505
0.11249733
0.13099766
0.16749763
0.18649769
0.11599827
0.10749817
0.22099781
0.25749874
0.26899815
0.06149769
0.053998947
0.14899826
0.11599827
0.24499798
0.11299801
0.034498215
0.13199806
0.059497833
0.032998085
0.056998253
-0.009502411
0.032998085
0.2244978
0.1194973
0.17099762
0.053497314
0.093997955
0.093997955
0.105498314
0.0749979
0.03099823
0.15999794
0.15149784
0.19449806
0.17549801
0.06849861
0.109498024
0.13099861
0.16549873
0.104997635
0.19499874
0.31249714
0.056498528
0.104997635
0.20949745
0.09649849
0.14849758
0.21599865
0.14799786
0.19499779
0.1204977
0.06349754
0.12549782
0.10599804
0.14899826
0.14249802
0.010997772
0.14049816
0.20399857
0.23849773
0.10649872
0.16749763
0.20549774
0.45399857
0.270998
0.21249771
0.06749821
0.27299786
0.30599785
0.2729988
0.20699787
0.31599808
0.18549824
0.21349716
0.21749783
0.22999763
0.16299725
0.26299763
0.27149868
0.3909979
0.35749817
0.36049843
0.33499813
0.26799774
0.17299843
0.15849781
0.20999718
0.20999813
0.33449745
0.12699795
0.10999775
0.101498604
0.102498055
0.117497444
0.20199776
0.336998
0.30949783
0.13849735
0.17799759
0.1924982
0.33649826
0.24799728
0.1819973
0.23349762
0.17099762
0.0634985
0.19349766
0.25599766
0.18699837
0.20299816
0.14799786
0.2794981
0.1904974
0.13099766
0.016498566
0.08599758
0.11699772
0.095498085
0.088498116
0.104997635
0.15199852
0.09599781
0.15299797
0.17999744
0.24749851
0.11949825
-0.018001556
0.14349747
0.100997925
0.047498703
0.025998116
0.05199814
0.13649845
0.13499737
0.17549801
0.16649818
0.25799847
0.20549774
0.16799831
0.1099987
0.14199829
0.12249851
0.13249874
0.12149811
-0.021001816
-0.0065021515
-0.027002335
0.02249813
0.021997452
0.0294981
0.02699852
0.04899788
0.03899765
0.0069971085
0.017997742
0.054498672
0.012497902
-0.013002396
0.06549835
0.030498505
0.04899788
0.06849766
0.101498604
0.020498276
0.11799812
0.08399773
0.06699848
-0.012501717
-0.051002502
0.02699852
0.017998695
-0.04700184
0.07649803
0.11849785
0.06549835
0.093997955
-0.02650261
0.031497955
0.014998436
0.17999744
0.11249733
0.023497581
-0.06300163
-0.032502174
-0.0045022964
-0.051502228
0.088498116
0.08299732
0.044498444
0.058498383
-0.016501427
-0.13400173
-0.15000248
-0.22350216
-0.12900162
-0.032001495
0.0379982
-0.0020017624
-0.022501945
-0.06100273
-0.051501274
-0.03600216
0.012997627
0.007498741
0.04599762
-0.045001984
-0.01950264
-0.106001854
-0.03950119
0.008998871
0.071998596
0.0634985
-0.003501892
0.040997505
0.111997604
0.05599785
0.04449749
0.02849865
0.000998497
-0.052002907
-0.040501595
-0.090501785
-0.11150265
-0.03500271
-0.013502121
-0.03700161
-0.024002075
-0.032001495
-0.07600212
-0.06250191
-0.054502487
0.017498016
0.059998512
0.0074977875
0.048498154
0.04249859
0.031497955
0.06399822
0.062498093
0.04799843
0.008997917
-0.036501884
-0.077002525
-0.058501244
-0.0010023117
0.089497566
0.086997986
0.07299805
0.108997345
0.08099842
0.18199825
0.12699795
0.08099747
0.10749817
0.13549805
0.18249798
0.11799812
0.092497826
0.10299873
0.08449745
0.060997963
-0.039502144
0.013498306
0.14799786
0.089998245
0.1004982
0.18349838
0.12499809
0.10399723
0.078998566
0.07449818
0.06299782
0.16349792
0.060498238
0.0464983
0.095498085
0.053997993
0.19699764
0.10349846
0.3174982
0.270998
0.08949852
0.103998184
0.16249847
0.02549839
0.06899834
0.16099834
0.05999756
0.024497986
-0.06400204
-0.037002563
-0.004002571
0.02149868
0.086997986
0.07749748
0.004497528
-0.03000164
0.107997894
0.17549801
0.081498146
0.04349804
0.11199856
0.24949837
0.055998802
0.018998146
0.053498268
-0.040501595
0.03949833
0.021497726
0.0664978
0.03399849
0.17399788
0.14449787
0.14949799
0.28999805
0.14899826
0.045497894
0.103998184
0.13349819
0.12149811
0.035497665
0.02399826
0.06999874
0.10699749
0.17299747
0.113497734
0.07849789
0.014997482
0.03949833
-0.0020017624
-0.09500122
0.06999779
0.17249775
0.1924982
0.16049767
0.22149849
0.07249832
0.13149834
0.15699768
0.11949825
0.0034980774
0.06149769
0.10699749
0.16349792
0.06549835
