0.0018654687
0.010301251
0.014604655
0.4507436
0.05308921
0.02006234
0.022658112
0.013823691
0.013116659
0.00478529
0.0023503911
0.12789269
0.026433669
0.016724065
0.00046636717
0.061175548
3.2483244
0.009743033
0.08197979
4.623599
7.498801
17.8115
3.1359892
0.17826712
0.004352314
0.002951793
0.008066575
0.017492644
3.7037182
8.036278
0.5289004
0.0010546874
0.0028124999
0.0028124999
0.025399214
0.009076776
0.00070312497
0.0007305516
0.31278294
2.6049898
0.01783658
0.002684803
0.0034528272
0.00070312497
0.026882323
0.00670824
0.39007363
0.35474175
0.24728401
0.010155386
0.0023936483
0.0050180433
0.013243999
0.024234403
0.000990839
0.0013424015
0.0062030675
0.05488047
0.030403303
0.004179274
0.004083579
0.0031640623
0.0038442938
0.011953125
0.003867187
0.0020635875
0.0
0.0017578125
6.7406305e-05
0.00070312497
0.0
0.0010546874
0.0
0.00070312497
0.0
0.0
0.00035156248
0.0010546874
0.00035156248
0.0010546874
0.010546875
0.039023437
0.0137109365
0.0038671873
0.0010546874
0.01863281
0.0010546874
0.045180343
0.009492187
0.0069876565
0.071939915
0.0029209112
0.049627002
0.0
0.5085039
0.076036215
0.005114455
0.22326452
0.2181628
0.48500705
0.013324999
0.0021118992
0.0008165806
0.0009203991
0.0011618822
0.005559681
0.0065169735
0.005007757
0.0022188162
0.00073121156
0.07671534
2.5005705
7.527012
0.6444829
0.04223072
0.0003874724
0.00021274733
2.4284954
2.9483457
13.481571
5.4409323
0.25929457
0.0017963891
0.0004134916
0.0010358572
0.0011719137
0.0047008647
0.0002390562
0.19110607
0.07299729
0.009410325
0.00080382114
1.108221
0.06546857
0.002320045
0.008840018
0.15205012
0.040502165
0.00024695045
0.00042738958
0.06854242
0.00031165223
1.8228278
12.196736
0.00997033
20.802422
2.490591
8.441266
0.115959086
0.0062039793
0.00021356402
0.8506114
1.2367581
1.4932561
0.0842668
1.9949489
1.4004997
5.750236
2.8328757
9.251722
0.71579754
2.0368726
0.19320147
0.0068439846
1.9009322
2.1393855
0.12881207
2.028295
5.066119
5.3487744
9.733727
8.083597
1.0929518
1.8697126
0.47542706
3.6504984
1.7666072
3.053639
0.23886375
0.028088171
0.05627061
0.38519278
0.43886244
0.8911927
5.2437983
1.2033968
4.606803
3.0149336
9.4857435
5.2159085
0.61446536
0.8970758
2.054284
0.5693122
2.6318557
0.53675044
0.99337655
6.137679
0.5832513
0.5027567
1.5191824
1.2350191
0.27337185
0.42885953
0.35754293
0.44992664
1.5025306
1.8236343
1.7909653
1.1594894
0.8242597
5.079022
4.355318
16.243515
21.254822
17.37748
0.33360237
0.49306348
0.30826676
1.5044837
12.563919
10.63408
1.0320823
4.688097
9.335421
6.5197806
2.5666666
4.125347
19.093168
23.319168
3.0951357
4.335191
1.294218
1.0274777
7.2322283
14.379509
8.222058
9.834829
0.21415353
0.054687347
0.0063890168
0.049242485
0.361398
0.0023986383
0.024097957
0.0019554722
0.0029343585
0.006443043
0.00016200001
0.0
9.737316e-05
0.0012978894
0.0013584574
0.14122732
0.24536064
0.14998947
0.12041094
2.9632647
3.4488454
0.9857006
0.071394295
0.056565978
0.0007599066
2.1058576
0.88772184
0.27261442
0.02101273
0.0
0.022992177
0.00081998436
0.06297734
1.842634
3.6588593
0.4203542
2.336938
18.505497
2.506719
0.17317697
0.0011456475
0.00062250416
0.0012450083
0.0008155789
2.5012174
4.1350923
5.7798963
0.42919764
0.22253583
0.11618834
0.0007222652
0.007950689
0.0037647318
0.00747005
0.006061876
0.10442809
0.07474559
0.00038612535
0.0060685305
0.017219506
7.420938e-05
0.3291664
0.007616219
5.3056774
0.24421662
0.0014379043
0.0037793606
0.0012665835
0.0015336322
0.0014246556
0.00361673
0.0019473041
0.0022244058
0.0010843168
0.0005013972
0.0018874164
0.000943624
0.0005735271
0.0024845381
0.012802247
0.0006197249
0.00014207217
0.0
0.887446
0.00013138205
0.0005464933
0.00088990934
0.0024903093
0.0012331968
0.00016283429
0.0
0.0014738363
0.09386646
0.11694069
0.0
0.38231513
0.08817111
0.47212863
0.00064182177
0.00097122125
0.0015379705
0.008834461
0.008347378
0.0057102763
0.016007027
0.00089695456
0.0062089697
0.0051553696
0.0017885136
0.0070464555
0.009114795
0.0008085744
0.0007806806
0.00086510833
0.0056326585
1.5205348
0.0050212983
0.0017064008
0.0011890902
0.0036525095
0.00046184953
0.0023385948
0.0038626066
0.18161076
0.000962939
0.0017670821
3.0284681
5.7219305
