0.000000000000000000e+00
0.000000000000000000e+00
0.000000000000000000e+00
0.000000000000000000e+00
1.159021023158817304e-01
0.000000000000000000e+00
0.000000000000000000e+00
0.000000000000000000e+00
0.000000000000000000e+00
0.000000000000000000e+00
0.000000000000000000e+00
0.000000000000000000e+00
0.000000000000000000e+00
0.000000000000000000e+00
0.000000000000000000e+00
0.000000000000000000e+00
0.000000000000000000e+00
2.022744505142260729e-01
0.000000000000000000e+00
0.000000000000000000e+00
0.000000000000000000e+00
1.921288760825481390e-01
0.000000000000000000e+00
0.000000000000000000e+00
0.000000000000000000e+00
0.000000000000000000e+00
0.000000000000000000e+00
0.000000000000000000e+00
0.000000000000000000e+00
0.000000000000000000e+00
2.003687491984161573e-01
2.234964530115635117e-01
0.000000000000000000e+00
0.000000000000000000e+00
1.398897764263765942e-01
2.215004067762316176e-01
8.253441725862357969e-02
1.382293918881774553e-01
0.000000000000000000e+00
0.000000000000000000e+00
0.000000000000000000e+00
1.752976138303375675e-01
0.000000000000000000e+00
0.000000000000000000e+00
0.000000000000000000e+00
1.851722579153076143e-01
1.903979283927700328e-01
2.168667609397724738e-01
0.000000000000000000e+00
0.000000000000000000e+00
0.000000000000000000e+00
0.000000000000000000e+00
0.000000000000000000e+00
1.016968705052364308e-01
1.538243277614625149e-01
1.659827093114427665e-01
0.000000000000000000e+00
0.000000000000000000e+00
2.387706468418151692e-02
2.317308232733631401e-01
2.428221976005056348e-01
0.000000000000000000e+00
0.000000000000000000e+00
0.000000000000000000e+00
0.000000000000000000e+00
0.000000000000000000e+00
1.796296860345702462e-01
2.339051942692890740e-01
2.784325592396671434e-01
2.818650730708531227e-01
2.852711893077313765e-01
2.373367890565853400e-01
2.788669654628940231e-01
3.185260271273159804e-01
3.167457486144261702e-01
2.870249568159735643e-01
0.000000000000000000e+00
0.000000000000000000e+00
1.988324853715686125e-01
0.000000000000000000e+00
0.000000000000000000e+00
1.874876894900024127e-01
3.359316345588592712e-01
0.000000000000000000e+00
0.000000000000000000e+00
2.223014186524050473e-01
5.960699120784984650e-02
0.000000000000000000e+00
0.000000000000000000e+00
0.000000000000000000e+00
0.000000000000000000e+00
0.000000000000000000e+00
0.000000000000000000e+00
0.000000000000000000e+00
3.477015120769408885e-01
0.000000000000000000e+00
1.736262072214430352e-01
2.794462215613018885e-01
4.293899775904197469e-01
3.916092196375012269e-01
0.000000000000000000e+00
0.000000000000000000e+00
0.000000000000000000e+00
3.756586785033327325e-01
3.617952835589450800e-01
3.764856405239351278e-01
4.265052808229082837e-01
0.000000000000000000e+00
1.597356684082953601e-02
4.095396085494067973e-01
4.017939663274384676e-01
5.023519538384580985e-01
5.588405140048727793e-01
4.932276839843561245e-01
4.903904808047090391e-01
4.984985324464877299e-01
4.362041364083411032e-01
4.724982287462964337e-01
4.200109810505426311e-01
0.000000000000000000e+00
4.017492110803012606e-01
1.876118183904318115e-01
0.000000000000000000e+00
0.000000000000000000e+00
4.781955525926840506e-02
4.764635859787899608e-01
4.143787276351217352e-01
2.466194869444660875e-01
6.176764264687457928e-02
3.345062102798486703e-01
4.438680318863367780e-01
0.000000000000000000e+00
0.000000000000000000e+00
6.305223407380015077e-01
6.540937637596706544e-01
6.522380530590969894e-01
6.888514034188630841e-01
7.101897805718930812e-01
6.967982980918028257e-01
6.910869183579748665e-01
6.644000354784310725e-01
6.624497990854369966e-01
6.928659351809893785e-01
6.617664728832287624e-01
6.096306046965199732e-01
5.771087415995156400e-01
6.680426921696366316e-01
5.793047928459325036e-01
5.665880760303547703e-01
5.931313231181691847e-01
5.824416982617183214e-01
5.904456651607974393e-01
6.444765081587194855e-01
6.510264338469798906e-01
6.173621462399672133e-01
5.882773744263878335e-01
6.030449661387725646e-01
5.795570778969364456e-01
0.000000000000000000e+00
5.500249689287912691e-01
6.861531333051952286e-01
7.645858393360880356e-01
7.454975598311478491e-01
7.029035811345654139e-01
7.480223865161698127e-01
7.295119534762884994e-01
7.085997736075345665e-01
7.261780347558111082e-01
7.491214737328316664e-01
7.666429685500184554e-01
7.618804902489251241e-01
7.847359170966106134e-01
7.965493583352122320e-01
7.566436597104497785e-01
7.078512539837731321e-01
7.007893889133703924e-01
6.960600655700919237e-01
7.348928388065946171e-01
7.733108334807224926e-01
7.644681065228231542e-01
7.690461614717564176e-01
7.548040192704141838e-01
7.689240462480414484e-01
7.639741564392128481e-01
6.863881397273270402e-01
6.413449773562268641e-01
7.235271857875734680e-01
7.561087770668449837e-01
7.229033989137244598e-01
7.496827799414053084e-01
7.709909970938463308e-01
7.373204414402135809e-01
7.249657091580693491e-01
0.000000000000000000e+00
0.000000000000000000e+00
7.386555908192213860e-01
0.000000000000000000e+00
0.000000000000000000e+00
0.000000000000000000e+00
2.623811147765739982e-01
5.604666802226394573e-01
6.594547329015590931e-01
6.226586225348358372e-01
6.084220531723502079e-01
6.483184491453660714e-01
0.000000000000000000e+00
6.046166085537189039e-01
0.000000000000000000e+00
6.527378126665370761e-01
6.619444064537507444e-01
6.879302623506874381e-01
7.064777867489552277e-01
7.580792151920946464e-01
7.653534923185992822e-01
7.546152891367883253e-01
4.703139777636535790e-01
7.469559195193771206e-01
7.634884264740312565e-01
7.659424390614903988e-01
7.449822835866660720e-01
6.419792772498377209e-01
6.556871280980977046e-01
4.158201417058894345e-01
6.741463242218326268e-01
6.889471545305199118e-01
6.958451854038211204e-01
7.040494865767253918e-01
6.928179335529157656e-01
7.204965809353266470e-01
5.912549287847341795e-01
0.000000000000000000e+00
6.999006253542633393e-01
7.355518813383593590e-01
0.000000000000000000e+00
0.000000000000000000e+00
6.000220642441667085e-01
6.926744693642192807e-01
6.999819681558836493e-01
6.734701547252108789e-01
6.800910383634083400e-01
7.382626887412396810e-01
7.561302014064964494e-01
7.517107630166873777e-01
7.052855048483396283e-01
5.780142523966089740e-01
0.000000000000000000e+00
0.000000000000000000e+00
6.298695985808934195e-01
6.249466191399155601e-01
6.675491409670823995e-01
0.000000000000000000e+00
4.241291422545370171e-01
0.000000000000000000e+00
2.346590189122801096e-01
0.000000000000000000e+00
0.000000000000000000e+00
4.424899513124770367e-01
5.174407748742650970e-01
5.880630640643421669e-01
6.008404746290277876e-01
6.321478117738303926e-01
0.000000000000000000e+00
0.000000000000000000e+00
3.636572015786764811e-01
0.000000000000000000e+00
5.092114489520417342e-01
0.000000000000000000e+00
0.000000000000000000e+00
2.581314586504526165e-01
4.503597536071231588e-01
4.538135581088816872e-01
4.991692479152747275e-01
4.835168159719959169e-01
4.739679734550950041e-01
4.941729806696621430e-01
0.000000000000000000e+00
0.000000000000000000e+00
0.000000000000000000e+00
0.000000000000000000e+00
0.000000000000000000e+00
0.000000000000000000e+00
5.902793195326480613e-02
1.483887712477286736e-01
0.000000000000000000e+00
2.782131695552357842e-01
2.936693855730186931e-01
4.015521057883543743e-01
4.527868144623547475e-01
0.000000000000000000e+00
1.743733060521455713e-01
0.000000000000000000e+00
0.000000000000000000e+00
0.000000000000000000e+00
0.000000000000000000e+00
4.185338081999463444e-01
0.000000000000000000e+00
4.316469350402030725e-01
4.278618501807246455e-01
3.802220962333914822e-01
4.364408709743270443e-01
0.000000000000000000e+00
0.000000000000000000e+00
0.000000000000000000e+00
2.746318715693354395e-01
3.601617301414529737e-01
3.101976224745162658e-01
0.000000000000000000e+00
0.000000000000000000e+00
0.000000000000000000e+00
0.000000000000000000e+00
0.000000000000000000e+00
0.000000000000000000e+00
0.000000000000000000e+00
0.000000000000000000e+00
0.000000000000000000e+00
0.000000000000000000e+00
0.000000000000000000e+00
0.000000000000000000e+00
0.000000000000000000e+00
2.620829097599425284e-01
0.000000000000000000e+00
0.000000000000000000e+00
3.551865670679398290e-01
3.485852279031842471e-01
0.000000000000000000e+00
0.000000000000000000e+00
0.000000000000000000e+00
0.000000000000000000e+00
0.000000000000000000e+00
0.000000000000000000e+00
2.355445719078632094e-01
3.173372280601480244e-01
3.061593490386543270e-01
2.302059533545127989e-01
0.000000000000000000e+00
0.000000000000000000e+00
0.000000000000000000e+00
0.000000000000000000e+00
0.000000000000000000e+00
0.000000000000000000e+00
0.000000000000000000e+00
0.000000000000000000e+00
0.000000000000000000e+00
0.000000000000000000e+00
0.000000000000000000e+00
0.000000000000000000e+00
0.000000000000000000e+00
0.000000000000000000e+00
0.000000000000000000e+00
0.000000000000000000e+00
0.000000000000000000e+00
0.000000000000000000e+00
0.000000000000000000e+00
0.000000000000000000e+00
0.000000000000000000e+00
0.000000000000000000e+00
5.653618629225209968e-02
1.225198680913103244e-01
2.853934940720108740e-02
0.000000000000000000e+00
0.000000000000000000e+00
0.000000000000000000e+00
0.000000000000000000e+00
0.000000000000000000e+00
