0.023775948
0.032887142
0.09422048
0.03277588
-0.050446615
0.23744266
0.12688679
0.07044241
0.05699815
-0.013113234
-0.035113018
-0.084224276
0.004553477
-0.044112947
-0.0093352
0.093886696
0.14710914
0.11777624
0.09622044
0.11344295
0.03277588
0.07533137
0.20299827
0.12888697
0.06577577
0.059553783
0.06422043
0.14322048
0.27066463
0.26644242
0.009108861
-0.110335246
0.058220334
0.02588696
-0.074446574
-0.114446215
-0.028668722
0.10277621
0.10822042
0.15322049
-0.028779984
-0.07289081
-0.058446247
-0.07766851
0.07110914
0.013886558
0.035886977
0.05388684
0.06399833
-0.024780061
-0.014890883
-0.043001812
-0.06377962
-0.104223885
-0.08455721
-0.06355752
0.014220344
0.12577587
0.24155362
0.20710924
0.1264428
0.106331296
0.12377569
0.049331453
0.07722049
0.027887132
-0.09733539
0.022776075
0.1383311
0.11933115
0.06388664
-0.04133521
-0.035224065
0.08588706
0.0849976
0.14333132
0.10822063
0.076775655
0.0647761
0.053331163
0.061331432
-0.07977952
0.03822009
0.10955366
-0.034335453
0.04722023
0.14366467
0.18744236
0.14188682
0.12555398
0.0687756
0.07233111
0.04377556
-0.024002075
0.053553686
0.0678872
0.048442204
0.046664342
0.077664696
0.08199819
0.009664748
0.07844225
0.06966485
0.09244262
0.04144266
0.04921998
0.023775736
0.08055326
0.041553922
0.06755384
0.023664687
0.012108909
0.004442427
-0.019224167
0.04233127
0.05455356
0.022219976
0.044664808
0.06744257
0.0802199
0.07344246
0.049442504
-0.0060017905
0.03477563
0.05121994
0.024664773
0.029220156
-0.073002286
0.02822007
-0.03222423
0.0055535636
0.0015534295
0.06122038
0.03466458
0.014886856
0.015886942
-0.025446573
0.0073314244
-0.036224365
-0.04966863
-0.0066683027
0.00277604
0.030664656
0.010553996
0.00066460506
-0.018001769
0.040775936
0.033220503
0.048331156
0.024442673
-0.0010017819
-0.00589074
0.012775421
-0.010890748
0.028775956
0.0076647867
-0.030224482
-0.04311307
-0.07122421
-0.033446416
-0.022002114
0.028442595
0.041331608
-0.03433524
-0.011335373
-0.0020018683
-0.058001835
-0.003335105
-0.03911315
-0.064224035
-0.04077975
-0.03755739
0.012553533
-0.003335105
0.05999777
0.013331307
0.018220266
0.012331221
-0.013113234
-0.02866851
-0.06844648
0.041109085
-0.011224111
-0.022001902
-0.009446462
0.0053312513
-0.05722406
0.015553581
-0.09055731
-0.059779696
-0.042001937
-0.04644627
-0.14444627
-0.11100197
-0.073890686
-0.0023352306
-0.005113178
-0.06277975
-0.064668655
-0.14655706
-0.1316683
0.019887077
0.033553228
0.027442507
0.010886934
0.008220249
-0.04277971
-0.019557528
-0.080779605
-0.020446353
0.0017759535
-0.01433542
-0.054779902
-0.00544654
0.017664803
0.006998274
0.033109453
-0.007224401
0.0029979283
-0.011668523
-0.008002175
-0.068668574
-0.08255747
-0.037112977
-0.00022443135
-0.013668484
-0.029335657
-0.048113294
0.006442388
0.014664544
-0.08722433
-0.067001976
-0.020335516
-0.07833523
-0.13644642
-0.06355773
-0.032890957
0.0009979672
-0.021890853
-0.023557663
-0.017224206
-0.012223985
-0.045668706
0.01199807
0.046109095
-0.009668774
-0.028779559
0.002775616
-0.06500181
-0.009112888
-0.042779498
-0.0662242
-0.009557512
0.047775906
0.04877599
0.052886963
0.02822007
0.021331575
0.0057758754
0.031109491
0.004664739
0.027998183
-0.007557339
0.022998385
-0.0043351916
-0.014779832
-0.009446462
-0.012890922
0.01688703
0.033442814
0.03122033
0.04699813
0.037109163
0.05077574
0.04588678
0.044553544
0.04188686
0.04444228
0.020442538
0.019331403
-0.0015572442
0.015331268
0.01055336
0.029553732
0.017220179
0.03466458
0.029776044
0.059998196
0.069442324
0.08644252
0.05455356
0.04444292
0.019664764
0.03255357
0.038664922
0.034998152
0.021775775
0.06466463
0.02588696
0.05044238
0.07855352
0.06844245
0.08433172
0.06399769
0.03522025
0.03999795
0.009331597
0.009442436
0.033109028
0.0021091038
0.046997707
0.07677587
0.02633116
0.053220112
0.10499827
0.07533158
0.017997954
0.030775705
0.058331594
0.07344267
0.074331075
0.0384424
0.06988695
0.030997805
0.04166455
0.069553584
0.016553666
0.06466505
0.10044268
0.11510934
0.12633154
-0.059890747
0.010664834
0.05844222
-0.0028909047
0.044886906
0.06822014
0.045442156
0.09255346
0.15910912
0.15810902
0.10888735
0.086442314
0.084553614
0.1192201
0.09055349
0.102997884
0.09299787
0.06677585
0.13633156
0.017997954
0.056997936
0.009109073
0.05966441
0.027442297
0.057109196
0.05644226
0.071775645
0.15277566
0.12677595
0.082775965
0.00044250488
0.050331328
0.01210912
-0.08022436
-0.12944667
-0.10266855
-0.026446661
0.059442732
0.094775945
0.061887104
-0.04266887
-0.020224042
0.020776113
0.060664494
0.016998079
0.022998175
-0.05189069
0.04921998
0.09877607
-0.009668774
0.115331225
0.039331436
0.052331287
0.081775665
0.09310913
0.01210912
-0.03366873
0.102775574
0.06322013
0.106108986
0.07522032
0.09577624
0.0036648645
0.020442327
-0.04600207
-0.021002028
-0.013779534
0.021109475
0.0035536024
0.06833119
0.08210924
0.11266497
0.09433132
0.14977582
0.123220444
0.120220184
0.035442565
0.06944254
0.0061092377
-0.17100228
-0.08455743
0.10466512
0.026664734
0.077553645
0.1424425
0.07422023
0.06122017
0.14355363
0.1802205
0.17866474
0.0007756551
0.017220179
-0.008779526
-0.089002185
-0.007668389
0.012664583
-0.07622443
-0.20211305
0.030997805
0.09444194
-0.038779575
-0.060446635
0.00277604
0.01788669
0.035775714
-0.018334918
0.044109344
0.032220416
0.048553467
0.030331293
0.07577578
0.05066469
0.035664875
0.03599845
-0.003446579
-0.05489095
0.06877581
0.027109146
0.031553693
0.091775686
0.09655338
0.008442349
-0.076668635
-0.13100179
-0.007224189
0.033664703
0.09977552
0.055553224
0.05722046
-0.014446259
0.039109126
0.051775828
0.040442362
0.023331324
0.028775744
0.0014421674
-0.055446412
-0.03911294
0.030775705
-0.00077989366
-0.012446297
-0.13800219
0.009331386
0.06733152
0.103997976
0.11188677
0.07666482
0.11455345
0.08944236
-0.008668687
0.035553403
0.013886982
0.019887077
0.060109034
0.05877622
0.04999818
0.049997967
0.020554014
0.022553338
0.05666457
-0.009001626
0.0379982
0.0506649
0.05788718
0.03110928
0.011997859
0.025331285
0.000775867
0.020776113
0.040108997
0.028331544
0.05288675
0.0061092377
0.0076647867
-0.006224526
0.054886714
0.025553385
0.0009983911
-0.022557365
0.024997711
0.07810911
0.01199807
0.04344262
-0.018779755
0.06466463
-0.007446289
0.012442695
-0.013891008
-0.01433542
0.009220336
0.0009981791
-0.016335381
-0.041668788
-0.024224175
-0.028557459
0.03010877
-0.0024467045
-0.05655734
-0.11911307
-0.11966896
0.0038869646
-0.06777954
-0.051224392
-0.069779925
-0.05022409
0.0038871765
0.011109246
-0.07244619
-0.026557498
-0.08633529
-0.011446423
-0.0710019
-0.08633529
-0.018557867
-0.08633529
-0.044223998
-0.020557616
-0.050113466
-0.037446126
-0.021557067
-0.104779564
-0.0628908
-0.066446304
-0.07133505
-0.052223843
-0.08089108
-0.022668203
0.00655365
-0.029001871
-0.010779698
-0.04455736
-0.054113176
-0.03544638
-0.07255745
-0.06377983
-0.040446598
-0.025556989
-0.05144649
-0.008224487
-0.046335008
-0.019557528
-0.015779708
-0.06711282
-0.09666867
-0.022779677
-0.039002314
-0.019557528
-0.027668634
-0.037113402
-0.07977952
-0.093001895
-0.009112888
-0.016779793
0.0031089783
-0.04477988
-0.04433505
-0.037557602
-0.046557322
0.013331307
-0.05489116
-0.04311307
-0.059557386
-0.04222446
-0.006224314
-0.005557802
-0.047891192
-0.010002136
0.0074424744
-0.001335144
-0.038446426
0.013665093
0.04555342
-0.006890827
0.02299775
-0.013335122
0.021220313
-0.040001974
-0.017335257
-0.052113216
0.0074426862
0.024775824
0.016331144
-0.001224306
0.01577568
0.014442656
0.018442366
-0.007001877
-0.023557663
0.0016649035
0.0023312038
-0.029446496
0.01599778
-0.027779898
0.0029979283
0.00277604
0.004775789
0.030331505
0.026553683
0.021109475
0.013331307
0.044331234
0.03855345
0.002330992
0.013442357
0.008886761
0.027220197
0.008886761
-0.04133521
-0.027446534
-0.03355768
0.002664566
-0.054557588
-0.027779685
-0.03255717
0.0031091901
-0.0045575034
-0.021780014
-0.037557177
-0.012557347
-0.023890601
0.005331463
0.0532199
0.012331433
0.014664544
0.041331396
0.046442244
0.04377577
0.08255344
0.031553905
0.06344244
0.08210903
0.1044426
0.039220385
0.047664855
0.056775834
0.02610906
0.049775865
0.07522011
0.0917761
0.072331324
0.044997957
0.008998023
0.009553697
-0.0065574646
-0.030557208
0.03466458
0.07499822
0.09744242
0.052998014
0.016220305
0.074775696
0.053997677
0.039220173
-0.001224094
0.05555365
0.04022005
0.041442234
0.07655355
0.05666457
-0.0061132642
-0.008668476
-0.0024462806
0.028664695
0.022109138
0.026886834
0.0074424744
0.01522043
0.054997973
0.08488676
0.032442518
0.048109055
0.00277604
0.012442271
0.056775834
0.08510886
0.08355374
0.1065534
-0.011890624
0.012998369
0.10366461
0.06366476
-0.0022239685
0.07588705
0.04399808
0.06377581
0.06688669
0.022220187
0.029220581
0.016109467
0.06877581
0.044553544
0.058998108
0.08055326
-0.00022421943
-0.0066687264
0.0036646526
0.0074422625
0.06933127
0.044109132
0.055331334
0.18666458
0.07588683
-0.041002274
-0.054779902
-0.045224294
-0.07500204
-0.048780017
0.029331632
0.11166467
0.103331245
0.12888697
0.08599811
0.12110943
0.118331484
-0.046223957
-0.0865576
-0.1343352
-0.14644644
-0.16722424
-0.115446515
-0.09722413
-0.028224098
0.11377568
0.10055372
0.1333313
0.023775948
-0.15422419
-0.069668666
-0.10666847
0.106108986
0.10977575
0.0668869
0.0066647
-0.0023352306
0.0057756635
0.012331433
-0.10455746
-0.13889101
-0.14955775
-0.044223998
-0.1056686
-0.29644626
0.011331346
0.013775932
0.07710923
0.07999802
0.035331514
-0.08633529
-0.06066852
0.0733312
0.07188712
0.13955392
0.102220535
0.041887283
-0.04666858
0.032109156
0.0398869
0.034219954
0.041331187
0.04333157
-0.028335147
0.05866496
0.081886925
0.0001089308
0.042886946
0.049664814
0.006553438
0.032664828
0.06999821
0.10410902
0.05288675
0.021553464
-0.0056684283
-0.0015576681
0.036664538
0.037553363
0.06966485
0.10322041
0.027109146
-0.041557312
0.084553614
0.049331453
0.07533137
-0.023446402
-0.04733552
-0.020446777
0.026331373
0.060442608
0.04033131
0.062442567
0.0064426
-0.00577969
0.058664534
0.048442416
0.0001089308
0.030775705
-0.003446367
0.010442521
0.065331355
0.0113311345
0.020775901
0.058776006
0.0714425
0.08444256
0.058997896
0.028998056
0.016775979
0.04999818
0.030886756
0.004331377
-0.007557339
0.038331136
0.041109297
0.05155415
0.014220132
0.09666464
0.11955367
0.04988713
0.04877599
0.06922044
0.07699818
0.045109008
0.051664777
0.06499778
0.0544423
0.033664703
0.014109082
0.03699811
0.042886946
0.02588696
0.02110884
0.028331544
0.008998235
0.018998252
0.027442297
-0.010779698
0.028442383
0.02066485
0.040108997
0.05077574
0.072664686
0.004664951
-0.016668744
0.045442794
0.04288716
0.026664522
0.004442427
0.016331566
0.038664714
-0.0028909047
0.02466456
0.03299798
0.033331554
0.03277609
0.033998277
0.006775962
0.015553368
0.039220385
0.0379982
0.030331505
0.0002201928
0.008220249
-0.023446402
0.02088695
0.0012196435
-0.019224167
0.09266472
0.07088704
0.08166504
0.017886903
0.0032204522
0.014775806
0.004442215
-0.04600186
-0.15222423
-0.08022414
-0.047446355
-0.023112826
-0.034668606
0.0023312038
0.000109142726
-0.023668502
-0.00066863163
0.0072203744
-0.01766883
-0.033112843
-0.011224323
0.029775832
0.01222017
-0.017335257
0.02444246
0.009886848
0.0076645743
0.04377577
0.019997915
0.004220327
0.016775979
-0.017113157
-0.08200243
-0.08000183
-0.05155733
-0.0065578884
0.055442598
0.022331025
0.0011092292
-0.06533538
0.0056646136
-0.010446548
0.021331152
-0.021001391
-0.009002049
-0.048779804
-0.089002185
0.01177597
-0.05311288
-0.057335112
-0.07300186
-0.020112991
-0.03933525
-0.052446578
-0.043668747
0.0017759535
-0.037001926
-0.044668835
-0.079446584
-0.07111295
-0.08466869
-0.14900208
-0.14111328
-0.037669078
-0.027224012
-0.04966884
-0.118335724
-0.053002253
-0.051891115
-0.0751133
-0.06933551
-0.008668687
-0.026113085
-0.04411316
-0.049223796
-0.0662242
-0.04244656
-0.052224264
-0.005113178
-0.04655711
-0.093224205
-0.10789108
-0.10700183
-0.05655755
-0.026113085
-0.007557551
0.0127756335
-0.039557353
-0.057335325
-0.003335317
-0.016668955
0.009108861
0.022220187
0.022776075
0.018553628
0.03099823
0.034886677
0.020887163
0.013664669
-0.007446501
-0.003224055
0.016998079
0.018553628
0.030775495
0.02088695
0.019776238
0.014886856
0.037553575
0.04233127
0.04144266
0.0369979
-0.0055573783
0.021331152
-0.004779604
0.038775973
0.049775865
0.051886663
0.021442413
-0.016557481
0.039442487
0.06866455
0.02066464
-0.043335386
-0.07666842
0.01177597
0.10310915
0.028331544
0.009331386
0.009109285
0.021775775
0.05910916
0.086997986
0.050887004
0.02988688
0.03322029
0.05044259
0.07122019
0.05210919
-0.009557724
0.004553265
0.073331624
0.05088679
0.018220477
-0.09889094
-0.010446548
0.0035538143
-0.046890896
0.0076643624
-0.025779936
-0.02689086
0.10733138
0.016331566
0.0077758366
0.06388707
0.06799804
0.050109226
0.023998048
0.03099823
0.04388682
0.034331426
0.040664673
0.014109082
0.032664616
0.11477576
0.10922008
0.031886842
0.013108783
-0.019113116
0.021553675
0.01599778
-0.0020018683
0.0035538143
0.008775711
-0.04544661
0.028331544
0.05766466
0.07210922
0.072553426
0.07888709
0.15133116
0.14055337
0.113331474
0.09055392
0.071553335
0.08877584
0.12488683
0.12166468
0.102776
0.017997954
0.045998044
-0.014446471
-0.025557412
0.12866466
0.035886977
0.09444216
0.05788676
0.062331304
-0.057335112
-0.13455772
0.17477587
-0.05133565
-0.13500214
0.19088703
0.12455347
-0.041224163
-0.1006688
-0.016112857
-0.027224222
0.042775683
0.08433109
0.038887024
0.044664808
0.13733122
0.07922003
0.06577577
0.06066492
0.046775818
0.023109011
0.04355367
0.11322042
0.10544268
0.14599821
0.113109164
0.05810907
0.054220412
0.023775525
-0.13144663
0.075442635
0.1665537
0.02788671
-0.091891184
-0.08622445
-0.14178
-0.19866858
0.16966459
0.09122022
-0.06333521
-0.03389083
-0.061112933
0.009219911
-0.0016687182
0.041442446
0.01744249
0.043775983
0.064220004
0.07933172
-0.06900194
-0.084224276
-0.06566874
0.03099823
0.08233155
0.060109455
0.039664585
0.06510946
0.056553524
0.11933136
0.05455356
0.07410897
0.06888665
0.0733312
0.065775976
0.058442432
0.09744242
0.039664585
0.093886904
0.04399808
-0.001446406
-0.0016687182
-0.036113527
-0.013335122
0.06355349
0.10744265
-0.0016682943
-0.065668955
-0.005112966
0.053776
-0.061335668
0.08810891
0.05155394
0.103997976
0.04588678
0.054219987
0.044887118
0.04755338
0.055664487
0.028109232
0.07733175
0.070553675
0.09666464
0.08810912
0.01788669
-0.041890673
-0.010668648
-0.016557481
0.02133094
0.000109142726
0.023331324
0.039553538
0.0096645355
0.051442675
0.061775845
0.04710918
0.0069978503
0.06510925
0.049997754
0.057553608
0.02788692
-0.0008905199
0.037109163
0.061665006
0.06910896
0.03510878
0.029664358
0.027109146
-0.033335157
-0.07411321
-0.02966902
-0.027668634
0.01710913
0.045664683
0.07810911
0.014553918
-0.011335161
-0.008001964
0.027442297
-0.021112867
-0.025779724
0.045998044
0.098886915
0.106664866
0.07577557
0.054997973
0.087109245
0.06444253
0.049331665
0.05099805
0.02788692
0.054331675
0.067553416
0.031998105
0.0008869171
0.048331365
0.048775777
0.045442156
0.05266486
0.02766482
0.034553315
0.059108946
0.06288677
0.038109463
0.0032202404
0.025553174
0.032886717
0.02299775
-0.014113109
-0.021001816
-0.0027798547
0.035775926
0.015442531
0.002553304
0.05222024
0.020553801
-0.033668518
-0.011779785
0.023886787
0.044664595
0.05510881
0.027775658
0.00033166673
0.013664882
0.008553399
-0.0020018683
-0.019891104
-0.03055742
-0.035335116
0.011442397
0.02088695
-0.011446635
0.016998079
0.00721995
0.006553438
-0.029557547
0.004220327
-0.06355773
-0.0710019
-0.04411316
0.023887
-0.0066687264
-0.059224024
-0.036002055
-0.053779814
-0.057668474
-0.018446604
-0.0028911168
-0.033557467
0.015108956
-0.03166898
-0.05300183
-0.02300199
-0.06566853
-0.036668353
-0.060446635
-0.06533538
-0.010446336
-0.100001864
-0.13666895
-0.07289103
-0.10289065
-0.038446214
-0.045447033
-0.0394463
-0.047446568
-0.03177982
-0.032890745
-0.046224594
-0.020668454
-0.04422421
-0.009446674
-0.12389077
-0.06355752
-0.033002004
-0.03566869
0.003220664
-0.0270017
-0.011113061
-0.05166859
0.007109324
0.0012198554
0.0035538143
-0.0753354
-0.0038909912
-0.03222423
-0.08911303
-0.14433521
-0.011002223
-0.005113178
-0.06000201
-0.09389072
-0.10689078
-0.10711331
-0.07322396
-0.10689121
-0.12744628
-0.037001714
-0.028779559
-0.049890943
-0.102446236
-0.065668315
-0.052224055
0.026220322
-0.043779586
-0.029668808
0.008331723
-0.0097796125
-0.050224517
-0.018891228
-0.015001933
0.0027758281
-0.025668673
0.00022061665
0.012664583
-0.03755739
-0.03366873
-0.008557637
-0.03633499
-0.059557598
-0.017223783
-0.01755778
-0.03166856
-0.039668612
-0.04644606
-0.06455803
-0.017112944
-0.007446501
0.008887185
0.008886761
0.015886731
0.030886969
-0.057224274
-0.028335571
0.04477586
0.048220318
0.044553757
0.02799797
0.02466456
0.016109467
0.012997733
-0.019779418
0.03455374
0.01688703
0.009109285
0.024442248
-0.025446363
-0.040446177
-0.03344663
-0.035668477
0.021775987
0.014220132
0.044664808
0.029664569
0.029997932
0.007109324
-0.009557512
0.053442426
0.04644267
0.06466463
0.07333141
0.017997954
0.008997811
0.013108995
0.033331342
0.06188689
0.044776067
0.0035538143
0.109331764
0.061665006
-0.035001967
0.043220095
0.070331365
0.04010921
0.013553832
0.08166504
0.04744254
0.05210919
0.040442362
0.03010898
0.056664996
0.07988676
0.05510945
0.055331547
0.08366479
0.08044264
0.08110894
0.09566477
0.042109173
0.09388712
0.11455366
0.12466473
0.16199811
0.13655366
0.11944262
0.08610895
0.10044246
0.0821086
0.064775676
0.084108986
0.05055364
-0.03266843
-0.026224136
0.105886884
0.06455358
0.069553584
0.08944236
0.048219893
-0.007669025
-0.031446457
0.0062202876
-0.052113004
-0.1295573
-0.20589086
0.12910907
0.10688676
0.029442469
0.015553792
0.053775787
0.060331557
0.026220322
-0.008224275
-0.023891024
0.05022049
0.09144232
0.24488725
0.11477576
0.08655357
0.08277575
0.062331304
0.08599811
0.09688674
0.16477585
0.04522027
-0.055779774
0.061776057
0.035220042
-0.04611291
-0.015335507
-0.11555757
-0.21766874
0.01710913
-0.12844616
-0.04055765
0.06633123
-0.0042241416
-0.04133521
-0.05355729
-0.060446635
-0.077668294
-0.018001769
0.0021091038
0.024220148
0.061887104
0.14166492
0.115553536
0.096886955
-0.020446353
-0.028113047
-0.04466841
0.053553686
0.11722056
0.07688692
0.1289976
0.14488707
0.05044238
0.021442626
0.15344238
0.096553594
0.10688697
0.10866483
0.087775975
0.14377573
0.070775986
0.01566463
0.019887077
0.05622037
0.041109297
0.082887225
0.11977598
0.1304423
0.066553324
0.029331632
-0.024779849
0.10933113
0.15766484
0.044553757
0.14522022
0.08277575
0.08110915
0.12155363
0.115442276
0.102997884
0.12788709
0.118220225
0.08155356
0.06399769
0.074442334
0.018997828
0.04799779
0.05466461
0.016442193
-0.01222441
-0.017335467
-0.014557732
0.051775828
-0.04422421
0.025553597
0.01577568
0.047775906
0.048886616
0.051553726
0.07310952
-0.003446367
0.023220487
0.04688708
0.047331493
0.08110937
0.08933131
0.099220484
0.06122038
0.07399792
0.065442614
0.07866478
0.04922019
-0.006890827
0.04699792
0.0066651236
0.018220054
0.009887272
-0.007335451
-0.0042239297
0.044886906
0.0544423
0.06310887
0.06810909
0.09166484
0.033109028
0.08144251
0.10166444
0.052553177
0.04010921
0.060331345
0.017886903
0.060109243
0.056109324
0.0903314
0.104109235
0.041442446
0.07666482
0.004442427
0.045331318
0.032331042
0.029442681
0.008886973
0.027331246
-0.0047798157
0.020553377
0.0076647867
0.009776009
0.034442477
0.025775485
-0.016668744
0.012998369
0.016109042
0.03977585
0.074442334
0.049553975
0.01522043
0.021664938
0.03466458
0.008887185
0.050441954
0.0023312038
0.057220034
0.012109544
0.0024424659
0.030220244
0.07133123
0.07177586
0.0031091901
0.020553589
0.037776098
-0.031446457
-0.115224205
-0.079890996
-0.10989062
-0.019335428
0.0033310784
-0.0038905675
0.0361095
0.059997983
-0.015335295
0.00066481694
-0.041890886
-0.10977978
-0.08455743
-0.034668818
0.0058867135
-0.05533515
-0.008668687
-0.043557484
-0.042335086
-0.04577997
-0.065446645
-0.044669047
-0.096224256
-0.09433535
0.0077756247
0.008109199
-0.061335035
-0.064890966
0.01877594
-0.029557757
-0.024446487
-0.060668945
-0.06700219
-0.017335257
-0.007446077
0.032442305
0.028664483
-0.054446537
-0.017224418
-0.093224205
-0.079113215
-0.06733555
-0.06455782
-0.13533571
-0.0786688
-0.054779477
-0.017446518
0.0008869171
-0.04722447
-0.08744621
-0.10089111
-0.07333522
-0.03911294
-0.0917795
-0.044780094
-0.09522417
-0.10544629
-0.108446546
-0.11633534
-0.0681129
-0.06633525
-0.056224186
-0.056112926
-0.03211297
-0.06766849
-0.029002083
0.0069978503
-0.08066898
-0.10144658
-0.015001721
-0.0060020024
0.010553572
-0.0050017037
0.0015538534
0.037331477
0.011109246
0.011442608
0.008775711
0.011220508
0.0033310784
-0.011002011
-0.043335173
-0.035001967
-0.03377957
0.029553732
0.03622055
-0.030890994
0.005331463
0.019664552
-0.0093352
0.0038867528
-0.04089101
0.0009979672
-0.0023350185
0.02088674
0.019997915
-0.010335286
-0.047557194
-0.04277971
-0.0098906625
-0.048002243
-0.013113022
-0.025002373
0.0074422625
-0.024779638
0.0014425913
0.023220275
-0.0024462806
0.0005537669
-0.012446086
-0.001335144
0.006998274
0.030775705
-0.005224016
0.030109193
0.05088679
0.013442569
0.004553265
-0.013668908
0.011442397
-0.040224288
0.0033315022
0.09399775
0.065998286
0.055331126
0.0029977162
-0.0008905199
0.010331471
0.005108727
0.024886873
0.03010877
0.076775655
0.060664706
0.012331221
0.008108987
-0.004668342
0.004331377
0.03310924
0.062442355
0.04655393
0.05199814
0.07310931
0.06266446
0.06077597
0.04744254
-0.0017797682
0.028886795
0.045664683
0.039664797
-0.019002067
0.033664703
0.06466463
0.05844307
0.08988677
0.06166458
0.021775987
0.060331345
0.10722033
0.09788704
0.09566455
0.12577587
0.021998087
0.041109297
0.03999816
0.0704422
0.120331235
0.16199811
0.10022015
0.03366449
0.030109193
0.1366645
0.080109276
0.0922201
0.096998006
0.10199843
0.041775808
0.09766473
0.08777576
0.10322041
0.07033094
0.079664655
0.09499783
0.12077543
0.1713312
0.2172201
0.13955371
0.10899798
0.035109416
-0.020113204
0.029108895
-0.017002106
-0.0025575426
0.034886677
0.11799833
0.1364424
0.08110915
0.06444253
0.09044245
0.011775758
-0.027446534
