0.012196655
0.0025529359
0.007915251
0.0025868174
0.0064675137
0.0027912133
0.00509209
0.0068808617
0.34257424
0.009762072
0.009661716
0.13431197
0.0066578556
0.014460367
0.7389932
0.021084141
0.003769825
0.0037220512
0.00447465
0.012377074
0.00989597
0.004197194
0.0059667365
0.009747465
0.005582241
0.0047663366
0.021617418
0.0070878523
0.005710988
0.007554907
0.08657853
0.017668251
0.004871517
0.0057719164
0.16875482
0.31303892
0.61249745
0.18716186
0.12970878
0.019572156
0.07040215
0.19133416
0.12998593
2.6028967
0.13468504
0.04537633
2.3850007
0.84849167
0.84868515
2.2902422
3.5489297
1.3495262
0.78100944
2.3209486
3.7531047
1.3901525
2.7443647
0.009532498
0.054996897
0.09659249
0.0073799286
0.0045004715
0.011160195
0.0048656585
0.0052469424
0.023549097
0.013317913
0.010388104
0.01485382
0.016391149
0.007710286
0.007982706
0.013754477
0.005734274
0.010198226
0.017304135
0.010327823
0.005250811
0.006385373
0.016590968
0.05079746
1.1803286
0.060264688
0.006672989
0.18394172
0.16148573
0.18227537
0.117086455
0.0073473593
0.09908905
0.007868173
0.009489081
0.0024785022
0.005827444
0.004222698
0.0094686225
0.009221072
0.2970134
0.29462695
0.18372445
0.016236188
0.015502795
0.03446587
0.7072076
0.75274706
0.5411045
1.7090237
0.19444777
2.4742827
0.042659804
0.058496285
0.06302372
0.7439561
0.19790608
0.6310584
0.01023861
0.15802251
0.5457271
0.052283496
0.1527163
0.4832221
0.021224698
0.4406044
1.960916
0.00018171305
4.43231
2.277129
1.2856009
0.1548073
0.5324466
0.29801446
0.53894997
0.11507806
0.1696162
0.18572603
0.8214066
0.8098729
0.5835509
0.10566277
0.51106
1.251906
2.3597922
1.2917438
1.4116426
1.0457907
0.40871096
0.3571968
0.40575066
1.198277
2.8342314
1.3767121
5.078428
2.7965226
4.765248
10.161436
11.330742
22.992027
18.037464
3.3757315
2.8748155
3.520544
8.484543
7.7440505
2.9797137
3.281507
3.8858545
4.540947
3.6596103
9.72669
12.164129
10.287207
8.573942
9.838095
2.5083952
1.248934
0.96140957
1.9142964
4.7081957
12.929289
13.238398
7.7842293
3.9482248
1.7570938
14.864252
4.829275
1.7839437
8.340605
18.907223
24.879612
17.588661
17.67012
18.55348
29.0723
17.39112
8.742748
7.1833067
5.0781736
15.668678
29.897095
31.183916
20.518707
6.4294777
0.16071239
1.0277741
0.49480963
2.6994722
8.981811
7.8290896
6.6315384
4.568226
5.031908
3.438971
4.206336
1.6045514
1.3756429
0.17191762
4.172997
3.5630164
6.3068056
11.9031925
11.033425
22.16362
17.258625
4.4770565
4.9272923
14.248318
11.923743
6.1397276
2.5660336
11.402266
11.849012
4.5090966
4.8262243
6.9150434
9.557966
15.587809
6.712164
5.480907
11.397602
13.639966
14.066589
19.149618
7.497903
3.7314262
15.433522
9.10203
2.1846833
0.57014173
2.4664056
3.6972575
6.043038
4.743909
5.960821
0.4411399
0.10049048
0.0031098716
0.6103101
5.976381
2.1943123
3.184519
9.657182
15.114058
0.543042
2.3094637
3.717578
2.1138716
6.656098
5.996917
1.7990952
2.3490145
2.9767475
3.6570292
2.3986292
0.18913054
0.18609749
0.05836398
0.16452304
0.035800345
0.23375235
1.3176036
2.8935704
1.3639977
1.4774489
1.7497754
0.8427133
1.6125516
0.16664982
0.17265537
1.2304955
2.0528665
2.573812
1.2262574
0.78385985
0.19990323
0.103143275
0.008518502
0.028963216
0.03145415
0.021055872
0.08774446
0.033162557
0.013169748
0.025591271
0.019399067
0.015866628
0.014424592
0.047923476
0.04749471
0.03961033
0.008224228
0.012215113
0.0048542134
0.021142082
0.011793081
0.009534361
0.00580412
0.03441842
0.0079422835
0.0049536955
0.0075277234
0.01072193
0.01433026
0.016217718
0.036971815
0.004798547
0.03570682
0.0046336697
0.0043720077
0.011493181
0.008215506
0.009487191
0.07264874
0.3269785
0.05853852
0.18164751
0.058029592
0.000105468745
0.0033468562
0.014262852
0.013629777
0.0041442555
0.006192255
0.004827807
0.010546841
0.0067464197
0.010116199
0.009698517
0.007129786
0.007922266
0.0019741207
0.0031133702
0.0056865234
0.0118117025
0.03440085
0.0065568564
0.0043716044
0.0011311148
0.0015117188
0.0016776355
0.008795638
0.0075373235
0.008317558
0.008871112
0.009658529
0.030302044
1.4807448
