0.010279
0.010081924811605884
0.009890143454359328
0.009703612176773993
0.009522287227363542
0.00934612485464164
0.009175081307121939
0.009009112833318102
0.008848175681743797
0.008692226100912682
0.008541220339338412
0.008395114645534649
0.008253865268015064
0.008117428455293308
0.007985760455883046
0.00785881751829794
0.007736555891051646
0.00761893182265783
0.007505901561630152
0.007397421356482271
0.007293447455727849
0.007193936107880548
0.007098843561454028
0.007008126064961951
0.006921739866917976
0.0068396412158357655
0.006761786360228981
0.006688131548611282
0.006618633029496331
0.006553247051397787
0.006491929862829313
0.006434637712304568
0.006381326848337216
0.006331953519440916
0.006286473974129328
0.006244844460916115
0.006207021228314939
0.0061729605248394565
0.006142618599003332
0.006115951699320226
0.006092916074303799
0.006073467972467711
0.006057563642325627
0.006045159332391203
0.006036211291178103
0.006030675767199985
0.006028509008970516
0.00602966726500335
0.006034106783812154
0.006041783813910584
0.0060526546038123024
0.006066675402030974
0.006083802457080254
0.006103992017473808
0.006127200331725295
0.006153383648348376
0.006182498215856711
0.006214500282763962
0.006249346097583791
0.0062869919088298564
0.006327393965015824
0.006370508514655351
0.006416291806262099
0.006464700088349727
0.0065156896094319015
0.0065692166180222784
0.006625237362634519
0.006683708091782287
0.006744585053979241
0.006807824497739046
0.006873382671575358
0.00694121582400184
0.007011280203532154
0.0070835320586799585
0.007157927637958918
0.0072344231898826905
0.007312974962964938
0.007393539205719323
0.007476072166659501
0.007560530094299142
0.007646869237151901
0.007735045843731439
0.007825016162551417
0.007916736442125498
0.008010162930967343
0.008105251877590612
0.008201959530508965
0.008300242138236064
0.008400055949285569
0.008501357212171146
0.008604102175406449
0.008708247087505143
0.008813748196980888
0.008920561752347345
0.009028644002118173
0.009137951194807039
0.009248439578927596
0.00936006540299351
0.009472784915518442
0.009586554365016053
0.009701330000000001
0.009817068068983949
0.009933724820481559
0.010051256503006492
0.010169619365072406
0.010288769655192964
0.01040866362188183
0.010529257513652659
0.010650507579019116
0.01077237006649486
0.010894801224593556
0.011017757301828858
0.01114119454671443
0.011265069207763939
0.011389337533491039
0.011513955772409393
0.011638880173032657
0.011764066983874503
0.011889472453448582
0.01201505283026856
0.012140764362848102
0.012266563299700859
0.012392405889340498
0.012518248380280681
0.012644047021035066
0.012769758060117311
0.012895337746041085
0.013020742327320044
0.013145928052467849
0.013270851169998162
0.013395467928424646
0.01351973457626096
0.01364360736202076
0.013767042534217717
0.013889996341365484
0.014012425031977725
0.014134284854568099
0.014255532057650273
0.014376122889737906
0.014496013599344649
0.01461516043498418
0.014733519645170142
0.014851047478416212
0.01496770018323604
0.015083434008143286
0.015198205201651629
0.015311970012274708
0.01542468468852619
0.015536305478919744
0.015646788631969027
0.015756090396187698
0.015864167020089418
0.015970974752187846
0.01607646984099665
0.01618060853502949
0.016283347082800013
0.016384641732821895
0.016484448733608797
0.016582724333674373
0.01667942478153229
0.016774506325696204
0.016867925214679776
0.016959637696996672
0.017049600021160544
0.017137768435685062
0.017224099189083884
0.01730854852987067
0.017391072706559086
0.017471627967662787
0.01755017056169543
0.017626656737170687
0.017701042742602213
0.01777328482650367
0.017843339237388716
0.017911162223771017
0.017976710034164237
0.018039938917082023
0.01810080512103805
0.01815926489454597
0.018215274486119447
0.018268790144272146
0.01831976811751773
0.01836816465436985
0.01841393600334217
0.01845703841294835
0.01849742813170206
0.018535061408116955
0.018569894490706694
0.018601883627984934
0.018630985068465347
0.01865715506066159
0.018680349853087322
0.0187005256942562
0.018717638832681897
0.018731645516878056
0.01874250199535836
0.018750164516636456
0.018754589329226003
0.018755732681640668
0.018753550822394115
0.018748
0.01873905340844832
0.018726752023634437
0.01871115376693004
0.01869231655970683
0.01867029832333651
0.018645156979190756
0.018616950448641267
0.018585736653059747
0.018551573513817882
0.018514518952287378
0.018474630889839923
0.018431967247847212
0.018386585947680938
0.01833854491071281
0.018287902058314497
0.018234715311857715
0.018179042592714162
0.018120941822255515
0.018060470921853474
0.017997687812879748
0.01793265041670602
0.017865416654703974
0.017796044448245334
0.017724591718701773
0.017651116387444987
0.01757567637584668
0.01749832960527855
0.01741913399711227
0.017338147472719567
0.017255427953472114
0.017171033360741605
0.017085021615899747
0.016997450640318223
0.016908378355368736
0.016817862682422986
0.01672596154285266
0.016632732858029447
0.016538234549325057
0.01644252453811117
0.01634566074575949
0.016247701093641716
0.016148703503129528
0.016048725895594636
0.015947826192408737
0.01584606231494351
0.015743492184570655
0.015640173722661875
0.015536164850588858
0.015431523489723304
0.015326307561436903
0.015220574987101351
0.015114383688088352
0.01500779158576959
0.014900856601516764
0.014793636656701565
0.014686189672695695
0.014578573570870841
0.014470846272598705
0.014363065699250985
0.014255289772199366
0.014147576412815546
0.014039983542471221
0.01393256908253809
0.013825390954387846
0.013718507079392182
0.01361197537892279
0.013505853774351371
0.01340020018704962
0.013295072538389227
0.013190528749741888
0.0130866267424793
0.012983424437973162
0.012880979757595164
0.012779350622717
0.012678594954710368
0.012578770674946959
0.012479935704798476
0.012382147965636605
0.012285465378833045
0.012189945865759493
0.012095647347787642
0.012002627746289185
0.01191094498263582
0.011820656978199237
0.011731821654351143
0.011644496932463218
0.011558740733907167
0.011474610980054683
0.011392165592277459
0.011311462491947193
0.011232559600435578
0.011155514839114302
0.011080386129355075
0.011007231392529581
0.01093610855000952
0.010867075523166583
0.010800190233372467
0.010735510601998866
0.010673094550417478
0.010613000000000001
0.010555269507592762
0.010499884171940688
0.010446809727263332
0.010396011907780254
0.010347456447711014
0.010301109081275166
0.010256935542692277
0.0102149015661819
0.010174972885963595
0.010137115236256924
0.010101294351281442
0.01006747596525671
0.010035625812402287
0.01000570962693773
0.009977693143082602
0.009951542095056456
0.009927222217078858
0.009904699243369362
0.009883938908147526
0.009864906945632912
0.00984756909004508
0.009831891075603586
0.009817838636527992
0.00980537750703785
0.009794473421352727
0.009785092113692178
0.009777199318275764
0.009770760769323041
0.00976574220105357
0.00976210934768691
0.00975982794344262
0.009758863722540256
0.00975918241919938
0.00976074976763955
0.00976353150208033
0.009767493356741269
0.009772601065841933
0.009778820363601878
0.009786116984240666
0.009794456661977851
0.009803805131032997
0.00981412812562566
0.0098253913799754
0.009837560628301777
0.009850601604824346
0.00986448004376267
0.009879161679336307
0.009894612245764812
0.009910797477267752
0.00992768310806468
0.009945234872375155
0.00996341850441874
0.00998219973841499
0.010001544308583462
0.010021417949143721
0.01004178639431532
0.010062615378317825
0.010083870635370785
0.010105517899693772
0.010127522905506333
0.010149851387028034
0.01017246907847843
0.01019534171407708
0.01021843502804355
0.01024171475459739
0.010265146627958162
0.010288696382345424
0.01031232975197874
0.010336012471077663
0.010359710273861754
0.010383388894550571
0.010407014067363676
0.010430551526520625
0.010453967006240976
0.010477226240744295
0.01050029496425013
0.010523138910978048
0.010545723815147606
0.010568015410978364
0.010589979432689876
0.01061158161450171
0.010632787690633413
0.010653563395304554
0.010673874462734686
0.010693686627143373
0.010712965622750169
0.010731677183774636
0.010749787044436332
0.010767260938954819
0.010784064601549645
0.010800163766440381
0.010815524167846584
0.010830111539987808
0.010843891617083615
0.010856830133353566
0.010868892823017215
0.010880045420294122
0.010890253659403853
0.010899483274565955
0.0109077
0.010914881158780618
0.010921050429402807
0.010926243079216627
0.01093049437557215
0.010933839585819442
0.010936313977308581
0.010937952817389629
0.010938791373412655
0.01093886491272773
0.010938208702684925
0.010936858010634307
0.010934848103925946
0.010932214249909908
0.01092899171593627
0.010925215769355089
0.01092092167751645
0.010916144707770407
0.01091092012746704
0.010905283203956416
0.0108992692045886
0.01089291339671366
0.010886251047681678
0.010879317424842704
0.010872147795546827
0.0108647774271441
0.010857241586984603
0.010849575542418399
0.010841814560795558
0.010833993909466154
0.01082614885578025
0.01081831466708792
0.01081052661073923
0.010802819954084247
0.010795229964473048
0.010787791909255696
0.010780541055782265
0.010773512671402821
0.01076674202346743
0.010760264379326168
0.0107541150063291
0.010748329171826294
0.010742942143167823
0.010737989187703757
0.01073350557278416
0.010729526565759106
0.01072608743397866
0.010723223444792896
0.01072096986555188
0.010719361963605682
0.010718435006304372
0.010718224260998018
0.010718764995036692
0.010720092475770458
0.010722241970549386
0.01072524874672355
0.010729148071643019
0.010733975212657856
0.010739765437118137
0.010746554012373925
0.010754376205775296
0.010763267284672315
0.010773262516415052
0.010784397168353575
0.010796706507837957
0.010810225802218262
0.010824990318844561
0.010841035325066925
0.010858396088235425
0.010877107875700126
0.010897205954811095
0.01091872559291841
0.010941702057372132
0.010966170615522337
0.010992166534719088
0.011019725082312457
0.011048881525652513
0.011079671132089328
0.011112129168972966
0.011146290903653499
0.011182191603480997
0.011219866535805525
0.011259350967977158
0.011300680167345962
0.011343889401262009
0.011389013937075365
0.0114360890421361
0.011485149983794286
0.011536232029399986
0.011589370446303275
0.01164460050185422
0.011701957463402891
0.011761476598299358
0.011823193173893683
0.011887142457535946
0.011953359716576212
0.012021880218364547
0.012092739230251026
0.012165972019585714
0.012241613853718681
0.012319699999999998
0.012400248750984747
0.012483210500048077
0.012568518665770152
0.012656106666731141
0.0127459079215112
0.012837855848690502
0.012931883866849203
0.013027925394567472
0.013125913850425473
0.013225782653003372
0.013327465220881326
0.013430894972639502
0.01353600532685807
0.013642729702117187
0.013751001516997022
0.013860754190077736
0.013971921139939497
0.01408443578516246
0.014198231544326801
0.014313241836012678
0.014429400078800253
0.0145466396912697
0.01466489409200117
0.014784096699574836
0.014904180932570859
0.015025080209569403
0.015146727949150634
0.01526905756989471
0.015392002490381805
0.015515496129192077
0.015639471904905698
0.015763863236102824
0.015888603541363615
0.016013626239268244
0.016138864748396868
0.01626425248732966
0.016389722874646774
0.016515209328928387
0.016640645268754653
0.01676596411270574
0.01689109927936181
0.01701598418730303
0.017140552255109555
0.017264736901361565
0.01738847154463921
0.017511689603522663
0.01763432449659209
0.017756309642427644
0.017877578459609498
0.017998064366717813
0.018117700782332755
0.018236421125034485
0.018354158813403167
0.01847084726601897
0.018586419901462058
0.018700810138312582
0.018813951395150724
0.018925777090556643
0.019036220643110502
0.01914521547139246
0.01925269499398269
0.019358592629461345
0.0194628417964086
0.019565375913404615
0.019666128399029547
0.01976503267186358
0.019862022150486856
0.01995703025347955
0.020049990399421826
0.020140836006893842
0.02022950049447577
0.02031591728074778
0.02040001978429001
0.020481741423682656
0.02056101561750586
0.020637775784339795
0.02071195534276463
0.020783487711360512
0.020852306308707623
0.020918344553386124
0.02098153586397617
0.02104181365905793
0.021099111357211573
0.02115336237701726
0.021204500137055146
0.021252458055905407
0.02129716955214821
0.02133856804436371
0.021376586951132065
0.021411159691033455
0.021442219682648034
0.021469700344555975
0.021493535095337434
0.02151365735357258
0.02153000053784157
0.02154249806672457
0.021551083358801754
0.02155568983265328
0.021556250906859305
0.0215527
0.02154499197958039
0.021533167508804872
0.021517288699802753
0.02149741766470328
0.021473616515635743
0.02144594736472941
0.021414472324113552
0.021379253505917448
0.02134035302227037
0.02129783298530159
0.02125175550714039
0.021202182699916035
0.02114917667575781
0.02109279954679498
0.02103311342515682
0.020970180422972606
0.020904062652371613
0.020834822225483114
0.020762521254436377
0.020687221851360692
0.020608986128385312
0.02052787619763953
0.020443954171252613
0.020357282161353834
0.020267922280072466
0.020175936639537786
0.020081387351879074
0.01998433652922559
0.019884846283706615
0.01978297872745143
0.019678795972589303
0.019572360131249498
0.019463733315561303
0.01935297763765399
0.019240155209656832
0.0191253281436991
0.019008558551910075
0.01888990854641902
0.01876944023935522
0.018647215742847948
0.01852329716902647
0.01839774663002007
0.01827062623795802
0.018141998104969588
0.018011924343184046
0.017880467064730673
0.017747688381738753
0.017613650406337545
0.01747841525065633
0.017342045026824387
0.01720460184697098
0.017066147823225387
0.01692674506771688
0.016786455692574743
0.016645341809928237
0.016503465531906646
0.01636088897063924
0.016217674238255292
0.016073883446884072
0.015929578708654867
0.015784822135696947
0.015639675840139575
0.015494201934112037
0.015348462529743605
0.01520251973916355
0.015056435674501144
0.014910272447885668
0.014764092171446391
0.014617956957312593
0.01447192891761354
0.01432607016447851
0.014180442810036779
0.014035108966417622
0.013890130745750304
0.013745570260164108
0.01360148962178831
0.01345795094275218
0.013315016335184986
0.013172747911216011
0.013031207782974528
0.012890458062589809
0.012750560862191129
0.012611578293907758
0.01247357246986898
0.01233660550220406
0.012200739503042273
0.012066036584512899
0.011932558858745206
0.011800368437868473
0.01166952743401197
0.011540097959304971
0.011412142125876755
0.011285722045856596
0.011160899831373758
0.011037737594557529
0.01091629744753717
0.010796641502441967
0.010678831871401189
0.010562930666544105
0.010448999999999998
0.010337090582433716
0.01022720751865242
0.01011934451199885
0.010013495265815745
0.009909653483445845
0.009807812868231888
0.009707967123516613
0.00961010995264276
0.009514235058953071
0.009420336145790282
0.009328406916497134
0.009238441074416364
0.00915043232289071
0.00906437436526292
0.008980260904875727
0.008898085645071867
0.008817842289194085
0.00873952454058512
0.008663126102587708
0.008588640678544587
0.008516061971798503
0.008445383685692191
0.00837659952356839
0.00830970318876984
0.00824468838463928
0.008181548814519452
0.008120278181753093
0.00806087018968294
0.008003318541651734
0.00794761694100222
0.007893759091077129
0.007841738695219203
0.0077915494567711826
0.007743185079075805
0.007696639265475813
0.007651905719313942
0.007608978143932934
0.007567850242675527
0.007528515718884463
0.007490968275902477
0.007455201617072309
0.007421209445736699
0.00738898546523839
0.007358523378920117
0.00732981689012462
0.00730285970219464
0.007277645518472912
0.00725416804230218
0.007232420977025184
0.007212398025984659
0.007194092892523347
0.007177499279983984
0.007162610891709316
0.007149421431042076
0.007137924601325006
0.007128114105900843
0.007119983648112328
0.007113526931302201
0.007108737658813203
0.007105609533988072
0.007104136260169542
0.007104311540700356
0.007106129078923258
0.007109582578180982
0.007114665741816267
0.007121372273171855
0.007129695875590485
0.007139630252414892
0.007151169106987822
0.0071643061426520105
0.007179035062750195
0.007195349570625118
0.007213243369619518
0.007232710163076134
0.007253743654337707
0.007276337546746975
0.007300485543646676
0.00732618134837955
0.007353418664288337
0.007382191194715776
0.007412492643004606
0.007444316712497568
0.007477657106537399
0.00751250752846684
0.007548861681628626
0.007586713269365505
0.0076260559950202065
0.007666883561935478
0.007709189673454052
0.007752968032918673
0.007798212343672079
0.007844916309057006
0.0078930736324162
0.007942678017092392
0.007993723166428329
0.008046202783766741
0.008100110572450378
0.008155440235821975
0.008212185477224269
0.008270340000000001
0.008329893845964748
0.008390822410825442
0.008453097428761849
0.00851669063395374
0.008581573760580885
0.008647718542823049
0.008715096714860001
0.008783680010871514
0.008853440165037354
0.008924348911537287
0.008996377984551085
0.00906949911825851
0.009143684046839342
0.009218904504473345
0.009295132225340284
0.009372338943619931
0.009450496393492056
0.00952957630913642
0.009609550424732804
0.009690390474460964
0.009772068192500675
0.009854555313031711
0.009937823570233829
0.010021844698286807
0.010106590431370407
0.010192032503664405
0.010278142649348562
0.01036489260260265
0.01045225409760644
0.010540198868539697
0.010628698649582193
0.010717725174913694
0.01080725017871397
0.010897245395162788
0.010987682558439918
0.011078533402725129
0.01116976966219819
0.011261363071038867
0.01135328536342693
0.011445508273542149
0.011538003535564292
0.01163074288367313
0.011723698052048426
0.01181684077486995
0.011910142786317477
0.012003575820570768
0.012097111611809595
0.01219072189421373
0.012284378401962934
0.01237805286923698
0.012471717030215638
0.012565342619078674
0.01265890137000586
0.01275236501717696
0.012845705294771746
0.012938893936969986
0.013031902677951448
0.0131247032518959
0.013217267392983113
0.013309566835392849
0.013401573313304889
0.013493258560898997
0.013584594312354932
0.013675552301852472
0.013766104263571388
0.013856221931691441
0.013945877040392404
0.014035041323854042
0.014123686516256128
0.014211784351778426
0.014299306564600713
0.014386224888902751
0.014472511058864308
0.014558136808665155
0.014643073872485061
0.014727293984503797
0.014810768878901127
0.014893470289856815
0.014975369951550643
0.01505643959816237
0.015136650963871767
0.015215975782858606
0.01529438578930265
0.01537185271738367
0.015448348301281438
0.015523844275175714
0.015598312373246272
0.015671724329672888
0.015744051878635323
0.015815266754313342
0.015885340690886717
0.015954245422535217
0.016021952683438617
0.016088434207776676
0.01615366172972917
0.016217606983475862
0.01628024170319652
0.01634153762307092
0.01640146647727882
0.01646
0.01651711536842729
0.016572811531805814
0.01662709288239375
0.01667996381244929
0.016731428714230615
0.016781491979995917
0.016830158002003378
0.016877431172511184
0.016923315883777525
0.016967816528060578
0.01701093749761854
0.01705268318470959
0.017093057981591917
0.017132066280523706
0.01716971247376314
0.01720600095356841
0.0172409361121977
0.0172745223419092
0.017306764034961092
0.01733766558361156
0.01736723138011879
0.017395465816740976
0.017422373285736294
0.017447958179362937
0.01747222488987909
0.017495177809542937
0.017516821330612664
0.01753715984534646
0.01755619774600251
0.01757393942483899
0.017590389274114104
0.01760555168608603
0.017619431053012946
0.01763203176715305
0.017643358220764523
0.017653414806105553
0.017662205915434315
0.017669735941009016
0.017676009275087827
0.017681030309928934
0.017684803437790525
0.017687333050930794
0.017688623541607915
0.017688679302080085
0.01768750472460548
0.017685104201442294
0.017681482124848713
0.017676642887082913
0.017670590880403087
0.017663330497067423
0.01765486612933411
0.01764520216946132
0.017634343009707253
0.017622293042330095
0.017609056659588018
0.017594638253739227
0.01757904221704189
0.017562272941754206
0.01754433482013436
0.017525232244440532
0.017504969606930904
0.017483551299863672
0.01746098171549702
0.01743726524608913
0.017412406283898195
0.017386409221182394
0.01735927845019992
0.01733101836320895
0.017301633352467673
0.017271127810234287
0.017239506128766957
0.017206772700323888
0.017172931917163254
0.01713798817154324
0.01710194585572205
0.017064809361957853
0.017026583082508834
0.016987271409633187
0.016946878735589095
0.016905409452634745
0.01686286795302833
0.016819258629028017
0.016774585872892007
0.016728854076878488
0.016682067633245635
0.016634230934251645
0.016585348372154692
0.016535424339212974
0.016484463227684668
0.016432469429827967
0.016379447337901056
0.016325401344162115
0.01627033584086934
0.016214255220280905
0.016157163874655
0.01609906619624982
0.016039966577323542
0.01597986941013436
0.015918779086940445
0.0158567
0.015793640027886083
0.015729620994431304
0.015664668209783145
0.015598806984089098
0.015532062627496646
0.015464460450153284
0.01539602576220649
0.01532678387380375
0.015256760095092563
0.015185979736220405
0.015114468107334765
0.015042250518583135
0.014969352280112999
0.014895798702071843
0.014821615094607159
0.014746826767866426
0.01467145903199714
0.014595537197146779
0.014519086573462835
0.0144421324710928
0.014364700200184155
0.014286815070884388
0.014208502393340986
0.014129787477701435
0.014050695634113224
0.013971252172723844
0.013891482403680776
0.013811411637131506
0.013731065183223529
0.013650468352104329
0.013569646453921393
0.0134886247988222
0.013407428696954247
0.013326083458465013
0.013244614393501998
0.013163046812212677
0.01308140602474454
0.01299971734124508
0.012918006071861774
0.01283629752674212
0.012754617016033597
0.012672989849883695
0.012591441338439905
0.012509996791849713
0.012428681520260597
0.012347520833820054
0.012266540042675562
0.012185764456974618
0.012105219386864706
0.012024930142493314
0.011944922034007922
0.011865220371556027
0.01178585046528511
0.011706837625342659
0.011628207161876165
0.01154998438503311
0.01147219460496098
0.011394863131807268
0.011318015275719458
0.01124167634684504
0.011165871655331495
0.011090626511326317
0.011015966224976989
0.010941916106430999
0.010868501465835833
0.01079574761333898
0.010723679859087927
0.010652323513230163
0.010581703885913169
0.010511846287284438
0.010442776027491451
0.010374518416681706
0.010307098765002678
0.010240542382601862
0.01017487457962674
0.010110120666224803
0.01004630595254354
0.009983455748730432
0.009921595364932968
0.009860750111298638
0.009800945297974928
0.009742206235109326
0.009684558232849312
0.009628026601342383
0.009572636650736023
0.009518413691177716
0.00946538303281495
0.009413569985795215
0.009362999860265994
0.009313697966374782
0.009265689614269058
0.00921900011409631
0.009173654776004032
0.0091296789101397
0.009087097826650813
0.009045936835684847
0.009006221247389297
0.008967976371911646
0.008931227519399385
0.008896
0.008862313648828371
0.008830166400868972
0.008799550716073664
0.008770459054394315
0.008742883875782792
0.008716817640190952
0.008692252807570673
0.00866918183787381
0.008647597191052231
0.008627491327057809
0.008608856705842398
0.00859168578735787
0.008575971031556091
0.008561704898388924
0.008548879847808234
0.008537488339765885
0.008527522834213746
0.008518975791103684
0.008511839670387558
0.008506106932017235
0.008501770035944585
0.008498821442121473
0.00849725361049976
0.008497059001031313
0.008498230073667998
0.008500759288361678
0.008504639105064226
0.0085098619837275
0.008516420384303367
0.008524306766743693
0.008533513591000344
0.008544033317025182
0.00855585840477008
0.008568981314186892
0.008583394505227496
0.008599090437843751
0.00861606157198752
0.008634300367610672
0.008653799284665071
0.008674550783102584
0.008696547322875076
0.00871978136393441
0.008744245366232457
0.008769931789721077
0.008796833094352136
0.008824941740077499
0.008854250186849039
0.008884750894618609
0.008916436323338082
0.008949298932959322
0.008983331183434196
0.009018525534714567
0.009054874446752305
0.009092370379499266
0.009131005792907326
0.009170773146928343
0.009211664901514184
0.009253673516616713
0.009296791452187805
0.009341011168179314
0.009386325124543111
0.00943272578123106
0.009480205598195027
0.009528757035386876
0.009578372552758473
0.009629044610261681
0.009680765667848371
0.009733528185470406
0.009787324623079654
0.00984214744062797
0.009897989098067229
0.009954842055349297
0.010012698772426035
0.010071551709249308
0.010131393325770987
0.010192216081942932
0.01025401243771701
0.010316774853045087
0.010380495787879026
0.010445167702170697
0.010510783055871964
0.010577334308934688
0.010644813921310736
0.010713214352951979
0.010782528063810276
0.010852747513837498
0.010923865162985503
0.010995873471206164
0.011068764898451341
0.011142531904672903
0.011217166949822714
0.011292662493852638
0.011369010996714541
0.011446204918360292
0.011524236718741754
0.011603098857810787
0.011682783795519264
0.011763283991819046
0.011844591906662002
0.011926699999999998
0.012009598342300424
0.012093267446092805
0.012177685434422193
0.012262830430333639
0.01234868055687219
0.0124352139370829
0.012522408694010822
0.012610242950701003
0.012698694830198498
0.012787742455548359
0.012877363949795636
0.01296753743598538
0.013058241037162636
0.013149452876372467
0.013241151076659914
0.013333313761070031
0.013425919052647877
0.013518945074438493
0.013612369949486936
0.01370617180083825
0.013800328751537496
0.013894818924629723
0.013989620443159977
0.014084711430173312
0.014180070008714777
0.014275674301829428
0.014371502432562319
0.014467532523958491
0.014563742699063
0.014660111080920898
0.014756615792577242
0.014853234957077069
0.01494994669746544
0.015046729136787404
0.015143560398088016
0.015240418604412326
0.015337281878805379
0.01543412834431223
0.01553093612397793
0.015627683340847534
0.015724348117966087
0.015820908578378645
0.015917342845130262
0.01601362904126598
0.01610974528983086
0.01620566971386994
0.016301380436428294
0.016396855580550942
0.01649207326928296
0.01658701162566939
0.016681648772755287
0.016775962833585695
0.016869931931205676
0.016963534188660267
0.01705674772899454
0.01714955067525352
0.017241921150482276
0.017333837277725854
0.01742527718002931
0.01751621898043769
0.017606640801996053
0.017696520767749437
0.0177858370007429
0.0178745676240215
0.017962690760630274
0.018050184533614278
0.018137027066018576
0.0182231964808882
0.018308670901268226
0.018393428450203676
0.018477447250739618
0.0185607054259211
0.018643181098793177
0.01872485239240089
0.018805697429789305
0.01888569433400346
0.018964821228088413
0.019043056235089218
0.01912037747805092
0.019196763080018567
0.019272191164037222
0.019346639853151923
0.01942008727040773
0.019492511538849695
0.019563890781522864
0.01963420312147229
0.019703426681743026
0.01977153958538012
0.019838519955428627
0.019904345914933595
0.019968995586940076
0.02003244709449313
0.020094678560637794
0.020155668108419126
0.020215393860882173
0.020273833941071993
0.020330966472033633
0.020386769576812142
0.02044122137845258
0.0204943
0.02054598652986991
0.020596273917959783
0.020645158079537547
0.02069263492987112
0.02073870038422844
0.020783350357877428
0.020826580766086025
0.020868387524122158
0.02090876654725375
0.020947713750748737
0.020985225049875045
0.021021296359900608
0.021055923596093352
0.02108910267372121
0.021120829508052105
0.021151100014353972
0.021179910107894738
0.021207255703942343
0.0212331327177647
0.021257537064629746
0.021280464659805414
0.021301911418559635
0.021321873256160327
0.021340346087875432
0.021357325828972876
0.021372808394720583
0.021386789700386495
0.02139926566123853
0.021410232192544617
0.021419685209572697
0.021427620627590696
0.021434034361866527
0.021438922327668145
0.021442280440263462
0.021444104614920422
0.02144439076690694
0.021443134811490957
0.02144033266394039
0.021435980239523183
0.021430073453507253
0.021422608221160544
0.021413580457750974
0.021402986078546477
0.02139082099881498
0.02137708113382442
0.02136176239884271
0.021344860709137804
0.021326371979977606
0.021306292126630065
0.0212846170643631
0.021261342708444646
0.02123646497414263
0.021209979776724994
0.021181883031459642
0.021152170653614525
0.021120838558457564
0.021087882661256694
0.021053298877279834
0.021017083121794924
0.02097923131006989
0.02093973935737267
0.020898603178971176
0.020855818690133355
0.02081138180612713
0.020765288442220423
0.020717534513681173
0.020668115935777307
0.020617028623776755
0.020564268492947454
0.020509831458557313
0.02045371343587428
0.020395910340166284
0.02033641808670125
0.020275232590747098
0.020212349767571774
0.020147765532443206
0.020081475800629314
0.020013476487398034
0.01994376350801729
0.01987233277775502
0.019799180211879153
0.019724301725657613
0.019647693234358325
0.01956935065324923
0.01948926989759826
0.019407446882673336
0.019323877523742383
0.01923855773607334
0.01915148343493413
0.019062650535592696
0.01897205495331695
0.018879692603374833
0.018785559401034272
0.0186896512615632
0.01859196410022954
0.01849249383230122
0.018391236373046183
0.01828818763773234
0.018183343541627636
0.018076699999999998
0.0179682619503199
0.017858070418868024
0.017746175454127606
0.01763262710458187
0.017517475418714044
0.017400770445007364
0.017282562231945058
0.017162900828010353
0.01704183628168648
0.016919418641456678
0.016795697955804163
0.01667072427321218
0.016544547642163943
0.016417218111142697
0.01628878572863166
0.01615930054311407
0.01602881260307315
0.01589737195699214
0.015765028653354263
0.015631832740642747
0.01549783426734083
0.015363083281931736
0.0152276298328987
0.015091523968724945
0.014954815737893708
0.014817555188888214
0.014679792370191697
0.014541577330287386
0.014402960117658507
0.014263990780788298
0.014124719368159984
0.01398519592825679
0.013845470509561957
0.01370559316055871
0.01356561392973028
0.013425582865559896
0.013285550016530787
0.013145565431126185
0.013005679157829316
0.012865941245123415
0.012726401741491712
0.012587110695417432
0.012448118155383816
0.012309474169874083
0.012171228787371468
0.012033432056359197
0.011896134025320507
0.011759384742738618
0.011623234257096772
0.011487732616878191
0.011352929870566108
0.011218876066643752
0.011085621253594358
0.010953215479901144
0.010821708794047352
0.010691151244516207
0.010561592879790941
0.010433083748354782
0.010305673898690961
0.01017941337928271
0.010054352238613257
0.00993054052516583
0.009808028287423666
0.009686865573869987
0.009567102432988028
0.009448788913261015
0.009331975063172186
0.009216710931204762
0.00910304656584198
0.008991032015567064
0.008880717328863247
0.008772152554213762
0.008665387740101836
0.008560472935010695
0.008457458187423578
0.008356393545823711
0.008257329058694324
0.008160314774518646
0.008065400741779905
0.007972637008961335
0.007882073624546168
0.007793760637017631
0.007707748094858952
0.007624086046553362
0.007542824540584097
0.007464013625434382
0.007387703349587443
0.007313943761526518
0.007242784909734833
0.00717427684269562
0.007108469608892106
0.007045413256807525
0.0069851578349251035
0.0069277533917280745
0.0068732499756996674
0.00682169763532311
0.006773146419081635
0.006727646375458472
0.006685247552936848
0.006646
0.006609939535950471
0.006577045063368093
0.006547281255652021
0.0065206127862013985
0.006497004328415376
0.006476420555693108
0.0064588261414337406
0.006444185759036425
0.00643246408190031
0.006423625783424547
0.0064176355370082865
0.006414458016050676
0.006414057893950869
0.006416399844108012
0.0064214485399212585
0.0064291686547897535
0.006439524862112653
0.006452481835289104
0.006468004247718255
0.006486056772799257
0.00650660408393126
0.0065296108545134166
0.006555041757944874
0.006582861467624781
0.006613034656952291
0.0066455259993265505
0.006680300168146714
0.006717321836811926
0.00675655567872134
0.006797966367274106
0.0068415185758693734
0.006887176977906291
0.006934906246784009
0.006984671055901679
0.0070364360786584505
0.0070901659884534726
0.007145825458685894
0.007203379162754868
0.007262791774059545
0.007324027965999071
0.007387052411972598
0.007451829785379276
0.0075183247596182536
0.007586502008088684
0.007656326204189714
0.007727762021320497
0.007800774132880177
0.007875327212267911
0.007951385932882844
0.00802891496812413
0.008107878991390914
0.00818824267608235
0.008269970695597586
0.008353027723335774
0.008437378432696062
0.008522987497077599
0.008609819589879537
0.008697839384501025
0.008787011554341216
0.008877300772799256
0.008968671713274297
0.009061089049165489
0.009154517453871979
0.009248921600792923
0.009344266163327465
0.009440515814874754
0.009537635228833947
0.009635589078604194
0.009734342037584639
0.00983385877917443
0.009934103976772725
0.010035042303778666
0.010136638433591413
0.010238857039610107
0.010341662795233901
0.010445020373861948
0.01054889444889339
0.010653249693727386
0.010758050781763085
0.01086326238639963
0.010968849181036171
0.011074775839071868
0.011181007033905866
0.011287507438937307
0.011394241727565351
0.011501174573189147
0.01160827064920784
0.011715494629020586
0.01182281118602653
0.011930184993624826
0.01203758072521462
0.012144963054195063
0.012252296653965307
0.0123595461979245
0.01246667635947179
0.012573651812006332
0.012680437228927276
0.012786997283633767
0.012893296649524957
0.0129993
0.013104975183578208
0.013210302749259587
0.013315266421164308
0.013419849923412538
0.013524036980124445
0.013627811315420202
0.013731156653419981
0.013834056718243946
0.013936495234012277
0.014038455924845131
0.014139922514862688
0.014240878728185115
0.01434130828893258
0.014441194921225253
0.014540522349183304
0.01463927429692691
0.014737434488576234
0.014834986648251449
0.01493191450007272
0.015028201768160221
0.015123832176634124
0.015218789449614594
0.015313057311221805
0.015406619485575928
0.015499459696797129
0.015591561669005575
0.015682909126321448
0.015773485792864906
0.01586327539275613
0.015952261650115273
0.016040428289062523
0.016127759033718044
0.016214237608202002
0.01629984773663457
0.016384573143135912
0.016468397551826212
0.01655130468682563
0.01663327827225434
0.016714302032232505
0.0167943596908803
0.016873434972317893
0.016951511600665457
0.017028573300043166
0.017104603794571172
0.017179586808369667
0.017253506065558817
0.01732634529025878
0.017398088206589727
0.017468718538671848
0.017538220010625293
0.017606576346570237
0.01767377127062684
0.017739788506915297
0.01780461177955576
0.017868224812668403
0.01793061133037339
0.017991755056790907
0.018051639716041103
0.018110249032244168
0.01816756672952026
0.01822357653198955
0.018278262163772215
0.01833160734898841
0.01838359581175832
0.018434211276202112
0.01848343746643995
0.018531258106592015
0.018577656920778465
0.018622617633119478
0.018666123967735215
0.01870815964874585
0.01874870840027156
0.01878775394643251
0.01882528001134887
0.018861270319140803
0.018895708593928497
0.018928578559832106
0.0189598639409718
0.018989548461467762
0.019017615845440147
0.019044049817009138
0.019068834100294894
0.019091952419417593
0.019113388498497398
0.01913312606165449
0.01915114883300903
0.019167440536681183
0.019181984896791134
0.01919476563745904
0.01920576648280508
0.019214971156949416
0.019222363384012224
0.019227926888113672
0.019231645393373926
0.019233502623913164
0.019233482303851548
0.019231568157309257
0.019227743908406456
0.01922199328126331
0.0192143
0.019204647788736685
0.019193020371593542
0.019179401472690743
0.019163774816148445
0.019146124126086836
0.019126433126626072
0.019104685541886334
0.019080865095987776
0.019054955513050587
0.019026940517194925
0.018996803832540956
0.01896452918320887
0.018930100293318815
0.01889350088699097
0.01885471468834551
0.0188137254215026
0.018770516810582404
0.018725072579705106
0.018677376452990863
0.018627412154559854
0.018575163408532238
0.018520613939028197
0.018463747470167897
0.018404547726071502
0.018342998430859195
0.01827908330865113
0.018212786083567488
0.01814409047972844
0.018072980221254153
0.01799943903226479
0.01792345063688053
0.017844998759221537
0.017764067123407987
0.01768063945356005
0.017594699473797888
0.01750623090824168
0.017415217481011585
0.017321642916227793
0.01722549093801045
0.017126745270479738
0.017025389637755833
0.01692140776395889
0.016814783373209095
0.016705500189626604
0.016593541937331598
0.01647889234044424
0.0163615351230847
0.016241454009373154
0.016118632723429765
0.01599305498937471
0.015864704531328152
0.01573356507341027
0.015599620339741223
0.015462854054441186
0.015323249941630328
0.015180791725428824
0.01503546312995684
0.014887247879334542
0.014736129697682107
0.014582092309119703
0.0144251194377675
0.014265194807745667
0.01410230214317437
0.01393642516817379
0.013767547606864087
0.01359565318336543
0.013420725621798
0.013242748646281957
0.013061705980937473
0.012877581349884723
0.012690358477243873
0.012500021087135093
0.01230655290367855
0.01210993765099442
0.011910159053202873
0.011707200834424072
0.011501046718778194
0.011291680430385405
0.011079085693365876
0.010863246231839778
0.01064414576992728
0.010421768031748551
0.010196096741423766
0.009967115623073088
0.009734808400816693
0.009499158798774748
0.009260150541067422
0.009017767351814886
0.00877199295513731
0.00852281107515487
0.008270205435987724
0.00801415976175605
0.007754657776580016
0.007491683204579795
0.007225219769875554
0.0069552511965874616
0.00668176120883569
0.006404733530740409
0.0061241518864217906
0.00584
0.0055522615955952105
0.005260920397327591
0.004965960129317314
0.004667364515684545
0.004365117280549459
0.0040592021480322215
0.0037496028422530046
0.0034363030873319775
0.0031192866073893144
0.0027985371265451774
0.002474038368919745
0.0021457740586331786
0.0018137279198056563
0.0014778836765573433
0.0011382250530084115
0.0007947357732790298
0.0004473995614893691
0.00009620014175959913
-0.0002588787617901125
-0.0006178534250395927
-0.000980740123868673
-0.0013475551341571787
-0.0017183147317849454
-0.0020930351926318046
-0.0024717327925775825
-0.0028544238075021086