0.0043190015
0.0043435018
0.004565751
0.0044110017
0.004686501
0.0044237515
0.0041775014
0.0037020016
0.0049552517
0.005946002
0.0061172517
0.006378502
0.0056440015
0.0035015014
0.0034065014
0.003410501
0.0040410017
0.0054017515
0.005751502
0.005029252
0.0043102517
0.0058505014
0.0063747517
0.005492252
0.0060745017
0.0067567513
0.006841001
0.0058102515
0.0053040017
0.004812252
0.0051575014
0.0059507512
0.006018001
0.0056242514
0.0062362514
0.008457751
0.007021501
0.0062160017
0.0059130015
0.0052317516
0.005554252
0.007134502
0.0057452517
0.0048135016
0.005053501
0.0046620015
0.0042197513
0.004000251
0.0041745016
0.0043190015
0.0046802512
0.005418502
0.004533502
0.0037040021
0.0044577513
0.0042560017
0.0045947516
0.004847252
0.004638502
0.005767002
0.006764752
0.0057925014
0.005245252
0.0054197516
0.005122752
0.0060882517
0.005501002
0.005656501
0.005367251
0.0046857516
0.0056295022
0.006799751
0.0061265016
0.0061610015
0.005016252
0.005128252
0.006369752
0.005458002
0.004963251
0.0049002515
0.0052372515
0.006617502
0.007029752
0.0061917515
0.005435752
0.0052642515
0.005475752
0.0060145017
0.0062260013
0.0056220014
0.0046242517
0.0065852515
0.006500502
0.006068501
0.0052515017
0.0059422515
0.0050442517
0.0048017516
0.0061602513
0.0066482513
0.0062985015
0.005065501
0.0050677517
0.0059102518
0.006474002
0.007318502
0.007467002
0.006462502
0.0066122515
0.0077010016
0.008217251
0.007840252
0.008107752
0.008726751
0.007855251
0.0082215015
0.007607252
0.0075097517
0.007609002
0.006484751
0.0053217513
0.0042972513
0.0059015015
0.006532751
0.0068242517
0.008797752
0.010280501
0.009795751
0.009460751
0.0089982515
0.007817002
0.0076900013
0.008385252
0.008811251
0.009928002
0.009510001
0.008133502
0.008519252
0.009936501
0.010730501
0.010020502
0.008082502
0.008616002
0.009107752
0.009781002
0.010234002
0.009676002
0.010102751
0.009725252
0.008908251
0.009915752
0.010363252
0.009920502
0.0090195015
0.009593252
0.010430251
0.011195501
0.012837252
0.016755253
0.019515501
0.01644475
0.013161251
0.011942751
0.011239752
0.0110435
0.011216501
0.0125865005
0.010579752
0.008658752
0.009007001
0.010709502
0.012493252
0.011251751
0.0107
0.010101002
0.011284001
0.013134501
0.013783001
0.013377752
0.011896501
0.014696501
0.017624501
0.017543752
0.017149752
0.017291501
0.016009752
0.015179001
0.015425252
0.019254752
0.02037875
0.020155251
0.019309003
0.020256002
0.019271752
0.018072251
0.019804003
0.02213125
0.0224645
0.022189002
0.02086275
0.019539751
0.020709751
0.02119225
0.022082001
0.022319753
0.020487752
0.0185665
0.0184265
0.017030502
0.016862752
0.018418003
0.018482251
0.01807825
0.018285252
0.017692251
0.017886503
0.017308502
0.016371502
0.016472751
0.017229252
0.016753253
0.0181735
0.020395
0.019509
0.018801501
0.018577252
0.018428503
0.01985225
0.019746002
0.020268
0.021008752
0.021258252
0.021134252
0.021057751
0.021171752
0.019427001
0.019231003
0.018982751
0.019210253
0.020215001
0.020909002
0.019921752
0.019345751
0.019911252
0.018638501
0.018384
0.02042875
0.019798
0.0198665
0.019639753
0.018271001
0.016809503
0.017035
0.01686575
0.015862253
0.014994502
0.015276002
0.015363751
0.016952751
0.016254
0.015426751
0.015021002
0.016076002
0.017825251
0.01759975
0.016313251
0.014573252
0.013478752
0.014165502
0.014714752
0.013985502
0.013098502
0.0129510015
0.013321752
0.013804752
0.014305752
0.013548501
0.013239002
0.014259251
0.014328752
0.0133065
0.0123447515
0.012007002
0.0120290015
0.011350752
0.010484751
0.010472752
0.009430502
0.009019001
0.008057501
0.009687502
0.010239251
0.010339001
0.010257252
0.008987752
0.008577001
0.008823251
0.008467751
0.0073390016
0.0070635015
0.0072552515
0.007156002
0.007514002
0.008159001
0.007973252
0.008851752
0.009330751
0.009162252
0.008334752
0.007834252
0.007835502
0.0068460014
0.006791752
0.0072607514
0.0074345013
0.0069647515
0.0065620015
0.0065572513
0.0068200016
0.0068522515
0.0067535015
0.005895252
0.0064802514
0.0073097516
0.0073632514
0.007695502
0.0073705013
0.006769752
0.0071152514
0.0068890015
0.0057045016
0.0052087517
0.0058127516
0.0050547514
0.005322001
0.0040382515
0.0026640021
0.0031697513
0.0040592514
0.005164001
0.0053562513
0.0046777516
0.004957001
0.0051115016
0.0056135016
0.0060822517
0.0043815016
0.004005502
0.004209502
0.0046250015
0.0049122516
0.0049677514
0.0062390016
0.0058540017
0.0053835018
0.0053060018
0.0052672513
0.005374751
0.0057147513
0.0056225015
0.0055495016
0.005542751
0.0053465017
0.0048940014
0.0047782515
0.0086555015
