0.0039115017
0.0026135007
0.003293001
0.0057265023
0.0046425015
0.004574001
0.0042675016
0.007491501
0.006077501
0.0037010023
0.0038950015
0.004745002
0.0036350023
0.004811502
0.006356502
0.009741501
0.010521501
0.008340501
0.007336502
0.007666501
0.007065002
0.0052350014
0.006999001
0.0059090005
0.006144002
0.005686002
0.005864002
0.0084655015
0.007120001
0.0053170016
0.0049800016
0.0049830014
0.0038140016
0.0039925016
0.004904501
0.0044265008
0.005581502
0.006181502
0.006957501
0.005361502
0.0046740016
0.0053205015
0.008027501
0.003076001
0.004330002
0.0057430016
0.0064195013
0.006181502
0.005714002
0.009459002
0.0077190017
0.005938001
0.0075780014
0.0055565014
0.0050730016
0.0054940023
0.004939001
0.0061265007
0.009845002
0.0062300013
0.0070590014
0.009072502
0.0060050013
0.0059555015
0.0070175016
0.0048750015
0.005574002
0.006570001
0.0062030014
0.0061500017
0.0058665015
0.0060415016
0.0073650014
0.006689002
0.0077415016
0.007310001
0.008296502
0.007344001
0.0058700023
0.006485001
0.008865501
0.011393501
0.012048001
0.0120290015
0.011395002
0.0096275015
0.010799002
0.012396502
0.011813502
0.010831501
0.012387501
0.012554002
0.011650002
0.011980002
0.009085001
0.012370502
0.011680002
0.011749001
0.012244001
0.014480001
0.012672502
0.012182502
0.013291501
0.014339002
0.015923
0.015816502
0.014370501
0.015280001
0.015217502
0.012176502
0.013797501
0.014677501
0.014189001
0.014642502
0.015412502
0.014962502
0.014714002
0.010678001
0.012671501
0.016319001
0.012445002
0.014034001
0.013382502
0.012584002
0.013741502
0.015540002
0.015722502
0.0178755
0.020034002
0.020409001
0.0198185
0.015259001
0.0185915
0.021421501
0.021257501
0.022840502
0.023849003
0.022265002
0.019784002
0.017451502
0.01669
0.0167845
0.015675
0.014852501
0.016988501
0.020407502
0.020878002
0.0186305
0.0189685
0.016700003
0.017295001
0.0206835
0.020363502
0.021855002
0.023345001
0.021186002
0.022976503
0.0243315
0.021269001
0.018031001
0.021306502
0.022160001
0.022850001
0.027090501
0.025980001
0.024200002
0.024065502
0.025760502
0.025372501
0.025670502
0.026650002
0.0283585
0.027825002
0.028959002
0.025145002
0.025699
0.025745
0.026704002
0.030592501
0.032373503
0.032947004
0.034041002
0.0334545
0.032656003
0.0324385
0.030421
0.029540502
0.031427503
0.033422
0.033084504
0.0323475
0.0322435
0.028855002
0.025436003
0.02685
0.025660502
0.024177503
0.025029002
0.0293665
0.0315385
0.032406002
0.033791002
0.0337435
0.033087
0.0328175
0.032057002
0.030148
0.031132001
0.0301255
0.028386
0.025996502
0.024169002
0.025919002
0.027659003
0.025323
0.024002502
0.024434
0.025065001
0.0257685
0.026263002
0.0300645
0.0324735
0.028199002
0.0254005
0.028385002
0.028695002
0.027966501
0.029275501
0.032068502
0.0322945
0.030900002
0.0305385
0.02961
0.029275
0.027785001
0.027757503
0.026101
0.024445001
0.023800502
0.024215002
0.023594003
0.0238275
0.022289502
0.0234075
0.025123501
0.025343502
0.025160002
0.025985003
0.025799002
0.026073001
0.025355501
0.024443
0.0239105
0.021087501
0.021347502
0.021092502
0.022385001
0.026549002
0.025345001
0.023270503
0.0203025
0.020851001
0.022915501
0.024574501
0.024568502
0.024858002
0.0259335
0.025701001
0.027401501
0.0245075
0.024577502
0.024150003
0.022288501
0.021194002
0.020113
0.021141501
0.019569002
0.018454
0.017226502
0.018669002
0.018184002
0.017254002
0.012212502
0.010351501
0.0119090015
0.013521501
0.011137002
0.011170002
0.010910002
0.011017501
0.015529001
0.016040001
0.013982501
0.013061502
0.012608501
0.011440502
0.010799001
0.0077690016
0.009095501
0.010737501
0.012904001
0.010415002
0.0114055015
0.012859002
0.012398502
0.012750001
0.011118501
0.009775502
0.009809001
0.010737502
0.010541001
0.011416501
0.010841502
0.009382502
0.011145001
0.016150001
0.016441502
0.009695502
0.0074905017
0.0053970013
0.0060025016
0.008792502
0.010958501
0.009958002
0.005953501
0.0052090017
0.008055502
0.009685002
0.010114001
0.011899002
0.0087290015
0.008759002
0.0077950014
0.009104002
0.007715001
0.0059240013
0.003819001
0.005625002
0.006539002
0.0073925015
0.0062230015
0.0070090014
0.007936502
0.0060680015
0.005043501
0.006131501
0.0063905017
0.006729002
0.0069825016
0.0070665013
0.0075710015
0.0083340015
0.0068430016
0.006251502
0.0055965027
0.0048640016
0.0046160016
0.0069440017
0.0074230013
0.0059055015
0.007829002
0.006786002
0.0055265008
0.0044715004
0.005880001
