0.005835335
0.0056767794
0.0062510013
0.00611189
0.005413446
0.0042677796
0.0041636685
0.0042846682
0.004406335
0.0044753347
0.0043968908
0.004617557
0.0049672234
0.00482189
0.0036218907
0.0035247793
0.0044146683
0.0048488905
0.0048971125
0.0050908905
0.0050543346
0.0052562235
0.005563224
0.0042928904
0.004153668
0.0042538904
0.0040777796
0.005654335
0.0073632235
0.0065900013
0.0062458906
0.007241446
0.008234222
0.008849224
0.010786891
0.010000335
0.008210891
0.008026001
0.008573112
0.009374224
0.009649891
0.010402445
0.009290335
0.0070587792
0.005500335
0.0053388905
0.00624278
0.0078448905
0.0092732245
0.008917781
0.0066661127
0.004531891
0.0039268904
0.0043680016
0.0049886685
0.004889557
0.0045792237
0.00446978
0.0055641127
0.006484002
0.0064490014
0.005791779
0.0022821133
0.0012607788
0.0015587794
0.0020070013
0.0024514461
0.0029057793
0.004781446
0.005365779
0.005697668
0.006047446
0.005439779
0.0042544464
0.0060424455
0.007232002
0.0085493345
0.011563112
0.010114113
0.006761668
0.0060100015
0.006391446
0.0065381126
0.00704578
0.007074001
0.0068428908
0.006803224
0.0062835566
0.006073557
0.00606789
0.00546389
0.005927668
0.0059091127
0.0068014464
0.0075831134
0.007954334
0.006965668
0.005561335
0.005962668
0.006224446
0.0064700013
0.0064727794
0.006754891
0.006989224
0.0076743346
0.0070763347
0.006756113
0.0073684463
0.007097668
0.006491001
0.006198223
0.0057424456
0.0053190016
0.0054472233
0.005824335
0.006249557
0.006337779
0.006817446
0.00755089
0.0077351127
0.0077265566
0.007564446
0.0072617787
0.005291002
0.004007224
0.0040717795
0.0048394464
0.0045753354
0.0047405567
0.0050377795
0.005727557
0.0065012234
0.007757446
0.008627336
0.0073754466
0.0060860016
0.00602989
0.0083851125
0.00903589
0.009008335
0.008798668
0.009494335
0.009701778
0.010688556
0.009758557
0.007506335
0.008634446
0.009408335
0.008539779
0.007038558
0.0074641127
0.008987224
0.009698335
0.010049224
0.010479668
0.010565113
0.0100862235
0.011557335
0.012699445
0.011296001
0.0104174465
0.010934113
0.01214378
0.012892113
0.013220334
0.015720446
0.018384779
0.017451666
0.017769447
0.01848778
0.020189445
0.020979889
0.021770446
0.022368224
0.022198446
0.022072114
0.021741558
0.021603223
0.020149555
0.019581668
0.021061001
0.021814445
0.022200113
0.02196867
0.02168689
0.021185555
0.021137334
0.02120178
0.022016115
0.021957777
0.021810446
0.021968335
0.02198689
0.022157334
0.021984892
0.022226555
0.02170478
0.021616224
0.02120678
0.021379557
0.021857336
0.021827335
0.021635113
0.021990666
0.022313446
0.022137001
0.022279555
0.021940893
0.021835446
0.021667002
0.021289224
0.021381669
0.021384
0.021052336
0.020972002
0.021400446
0.021627447
0.021703113
0.02216989
0.022327447
0.02236878
0.02162578
0.021163668
0.021306891
0.021447225
0.021274557
0.020909114
0.02053089
0.02112878
0.021575114
0.020826222
0.020875001
0.021918112
0.02176578
0.021890668
0.02152278
0.020444335
0.020552889
0.020691557
0.020743113
0.021016337
0.021085225
0.020927336
0.020935113
0.020881556
0.02112011
0.021270335
0.020826334
0.020688448
0.020038333
0.019848779
0.019484334
0.019876666
0.020059891
0.020108335
0.019857667
0.020149669
0.020533891
0.020724334
0.02046378
0.02024778
0.020531224
0.020829447
0.021246782
0.021179223
0.020476665
0.020696001
0.020730224
0.020560002
0.020275889
0.02004589
0.020002779
0.020093447
0.019127112
0.01732089
0.01611389
0.016619448
0.017763557
0.018187001
0.018370334
0.019437559
0.018761002
0.014583667
0.01365089
0.012341779
0.011941446
0.011175224
0.011344112
0.012930668
0.014178667
0.01516578
0.015793337
0.014433558
0.013049445
0.013207668
0.014214779
0.014312668
0.014270779
0.014228223
0.013851113
0.014470112
0.015896114
0.016777225
0.016738556
0.01570489
0.014362555
0.012846446
0.011194889
0.010057113
0.00932689
0.009580335
0.0100626685
0.009090668
0.007822556
0.007701001
0.0078117796
0.007842668
0.0081686685
0.008171224
0.008173224
0.008744891
0.009483335
0.009615336
0.00922189
0.008084557
0.00747289
0.006876335
0.0067796684
0.0062927795
0.006074335
0.006408335
0.007170113
0.00774189
0.007752113
0.006841223
0.005816891
0.0055118897
0.0052680015
0.0051811133
0.005370779
0.005095668
0.005560668
0.006373335
0.0073621124
0.00827778
0.008967113
0.008534667
0.008066224
0.007934669
0.008891891
0.008664669
0.0075331125
0.0069565573
0.006525224
0.0059880014
0.0056547793
0.0057452237
0.0063223345
0.006248335
0.0073068906
0.010824669
0.009807668
0.006298557
0.0047291126
0.004376001
