0.000000000000000000e+00
0.000000000000000000e+00
0.000000000000000000e+00
0.000000000000000000e+00
1.166164128477614054e-02
0.000000000000000000e+00
0.000000000000000000e+00
0.000000000000000000e+00
0.000000000000000000e+00
0.000000000000000000e+00
0.000000000000000000e+00
0.000000000000000000e+00
0.000000000000000000e+00
0.000000000000000000e+00
0.000000000000000000e+00
0.000000000000000000e+00
0.000000000000000000e+00
2.054626556619588290e-02
0.000000000000000000e+00
0.000000000000000000e+00
0.000000000000000000e+00
1.945312542475659268e-02
0.000000000000000000e+00
0.000000000000000000e+00
0.000000000000000000e+00
0.000000000000000000e+00
0.000000000000000000e+00
0.000000000000000000e+00
0.000000000000000000e+00
0.000000000000000000e+00
2.030909956396979507e-02
2.272942324398641648e-02
0.000000000000000000e+00
0.000000000000000000e+00
1.408941679426338293e-02
2.251952982648215001e-02
8.539843371694387161e-03
1.409766505759600663e-02
0.000000000000000000e+00
0.000000000000000000e+00
0.000000000000000000e+00
1.776909399385164304e-02
0.000000000000000000e+00
0.000000000000000000e+00
0.000000000000000000e+00
1.873114280219659311e-02
1.927261662566054704e-02
2.203328528056290592e-02
0.000000000000000000e+00
0.000000000000000000e+00
0.000000000000000000e+00
0.000000000000000000e+00
0.000000000000000000e+00
1.020864254063467980e-02
1.550428664353659461e-02
1.675170419803980598e-02
0.000000000000000000e+00
0.000000000000000000e+00
2.422764770577407866e-03
2.359756761657538088e-02
2.486032309339873334e-02
0.000000000000000000e+00
0.000000000000000000e+00
0.000000000000000000e+00
0.000000000000000000e+00
0.000000000000000000e+00
1.816271086935520446e-02
2.382716151648656133e-02
2.859042272115879663e-02
2.900482835910842688e-02
2.933307007818147794e-02
2.419028314056838325e-02
2.863763300380559734e-02
3.299472765393894613e-02
3.279087029343379783e-02
3.005704548169163548e-02
0.000000000000000000e+00
0.000000000000000000e+00
2.015215014213982136e-02
0.000000000000000000e+00
0.000000000000000000e+00
1.897093193744656126e-02
3.494069014610057949e-02
0.000000000000000000e+00
0.000000000000000000e+00
2.260398089379483250e-02
6.102959297276369134e-03
0.000000000000000000e+00
0.000000000000000000e+00
0.000000000000000000e+00
0.000000000000000000e+00
0.000000000000000000e+00
0.000000000000000000e+00
0.000000000000000000e+00
3.657495898592834360e-02
0.000000000000000000e+00
1.783005532429588966e-02
2.883845490533941056e-02
4.588263322765843977e-02
4.134635577879362117e-02
0.000000000000000000e+00
0.000000000000000000e+00
0.000000000000000000e+00
3.962853555470641220e-02
3.787687422893024070e-02
3.958505155375639101e-02
4.553061776735600058e-02
0.000000000000000000e+00
1.698844154020671135e-03
4.348285800845760191e-02
4.272686244922405813e-02
5.520238449875287945e-02
6.303575789038734500e-02
5.397915418077740835e-02
5.360892831545040205e-02
5.467621884053332215e-02
4.671929733419349223e-02
5.128317138326048130e-02
4.584394434284586040e-02
0.000000000000000000e+00
4.254760712745645629e-02
2.034637683768309932e-02
0.000000000000000000e+00
0.000000000000000000e+00
5.088313218501222882e-03
5.179354784429895941e-02
4.406512885044597955e-02
2.748832870439660639e-02
6.896274331310536278e-03
3.630749626851886847e-02
4.852667439729138610e-02
0.000000000000000000e+00
0.000000000000000000e+00
7.412237078493996711e-02
7.808887171110032166e-02
7.776518877322648182e-02
8.437557706391618506e-02
8.852433125654445012e-02
8.589283960858257183e-02
8.479919753202187771e-02
7.989436104142040584e-02
7.954823504188204830e-02
8.513819543414684332e-02
7.942733340265384356e-02
7.071510212078582769e-02
6.571682362801327393e-02
8.054513303855045936e-02
6.604531409597760860e-02
6.416007987174790483e-02
6.814255336620220205e-02
6.651664521070715930e-02
6.773114124375745337e-02
7.644320401839765911e-02
7.755193960505249451e-02
7.194865814818456051e-02
6.740056908070461705e-02
6.968044694084485347e-02
6.645004071753710106e-02
0.000000000000000000e+00
6.176511708355150732e-02
8.386752636365442382e-02
1.003772669406314683e-01
9.597820471981349799e-02
8.708054850557309101e-02
9.654336937671763319e-02
9.250312493735740604e-02
8.820678486871900981e-02
9.180041849847261903e-02
9.679103035586109072e-02
1.008691370926861341e-01
9.973925871027054801e-02
1.053656257379908118e-01
1.084814167071709023e-01
9.851113956539954419e-02
8.805783842715601828e-02
8.666703071169079564e-02
8.575054902972173432e-02
9.365308271731845324e-02
1.024902753938166516e-01
1.003566205846414400e-01
1.014491976534850903e-01
9.808660250743431175e-02
1.014360948434272630e-01
1.002666151716253978e-01
8.391356801591108583e-02
7.891236429152238829e-02
9.124662313926414081e-02
9.838734782234127840e-02
9.111657896346336827e-02
9.691799019735465592e-02
1.019215277322233909e-01
9.417833519820628663e-02
9.154629816415817134e-02
0.000000000000000000e+00
0.000000000000000000e+00
9.505378408139815438e-02
0.000000000000000000e+00
0.000000000000000000e+00
0.000000000000000000e+00
3.043093809840852204e-02
6.374126802025352478e-02
7.902031365189984835e-02
7.392374291201535275e-02
7.052583360577860394e-02
7.708624034846293938e-02
0.000000000000000000e+00
7.320830787571107334e-02
0.000000000000000000e+00
7.787790522280550742e-02
7.987452238011287509e-02
8.420176705535720174e-02
8.778512638908506083e-02
9.884452802631060742e-02
1.005604292280347506e-01
9.804411728499923262e-02
6.115303723710573819e-02
9.630393796919579918e-02
1.001164044787985485e-01
1.007017658925724174e-01
9.586305169279092653e-02
7.600646788116612040e-02
7.836077279975631193e-02
5.012988244546664335e-02
8.167646334241740469e-02
8.439371052856958766e-02
8.570918896036205936e-02
8.763419368376433594e-02
8.717840528522834143e-02
9.066125183601915494e-02
7.450467250470706182e-02
0.000000000000000000e+00
8.654382095747611969e-02
9.380130896451988054e-02
0.000000000000000000e+00
0.000000000000000000e+00
7.387405047164838368e-02
8.532278955690655864e-02
8.669494182953461914e-02
8.152532685428653947e-02
8.273875906343360065e-02
9.438323434474624185e-02
9.839230218681517537e-02
9.769966983116436243e-02
8.779236986681153432e-02
6.742624965250014479e-02
0.000000000000000000e+00
0.000000000000000000e+00
7.398456156794329386e-02
7.317712182175835356e-02
8.059164461732878926e-02
0.000000000000000000e+00
4.939915322330663133e-02
0.000000000000000000e+00
2.688586086336375303e-02
0.000000000000000000e+00
0.000000000000000000e+00
4.946542408738338614e-02
5.740486815808053950e-02
6.736781188123205921e-02
6.933528564053718923e-02
7.439942580396347038e-02
0.000000000000000000e+00
0.000000000000000000e+00
3.839387110584065177e-02
0.000000000000000000e+00
5.612318149786592325e-02
0.000000000000000000e+00
0.000000000000000000e+00
2.865274558770811858e-02
4.873771645133889718e-02
4.891148308596747485e-02
5.476507631263298481e-02
5.270890601047478752e-02
5.147241296415439732e-02
5.411028852596649202e-02
0.000000000000000000e+00
0.000000000000000000e+00
0.000000000000000000e+00
0.000000000000000000e+00
0.000000000000000000e+00
0.000000000000000000e+00
6.103193010835921382e-03
1.573280961529575223e-02
0.000000000000000000e+00
2.938693277584703695e-02
3.095491137599757497e-02
4.252453277466305970e-02
4.879068706003273498e-02
0.000000000000000000e+00
1.813270907474083191e-02
0.000000000000000000e+00
0.000000000000000000e+00
0.000000000000000000e+00
0.000000000000000000e+00
4.473286533118710911e-02
0.000000000000000000e+00
4.615946937775364245e-02
4.571116605487272194e-02
4.008703093432136599e-02
4.675554840971021114e-02
0.000000000000000000e+00
0.000000000000000000e+00
0.000000000000000000e+00
2.817920763428529568e-02
3.788334027106240315e-02
3.300970638010050640e-02
0.000000000000000000e+00
0.000000000000000000e+00
0.000000000000000000e+00
0.000000000000000000e+00
0.000000000000000000e+00
0.000000000000000000e+00
0.000000000000000000e+00
0.000000000000000000e+00
0.000000000000000000e+00
0.000000000000000000e+00
0.000000000000000000e+00
0.000000000000000000e+00
0.000000000000000000e+00
2.686414719341886567e-02
0.000000000000000000e+00
0.000000000000000000e+00
3.711960673918773823e-02
3.637542919532348734e-02
0.000000000000000000e+00
0.000000000000000000e+00
0.000000000000000000e+00
0.000000000000000000e+00
0.000000000000000000e+00
0.000000000000000000e+00
2.400141716784464849e-02
3.285650586542054191e-02
3.170856507244900618e-02
2.344187219052891805e-02
0.000000000000000000e+00
0.000000000000000000e+00
0.000000000000000000e+00
0.000000000000000000e+00
0.000000000000000000e+00
0.000000000000000000e+00
0.000000000000000000e+00
0.000000000000000000e+00
0.000000000000000000e+00
0.000000000000000000e+00
0.000000000000000000e+00
0.000000000000000000e+00
0.000000000000000000e+00
0.000000000000000000e+00
0.000000000000000000e+00
0.000000000000000000e+00
0.000000000000000000e+00
0.000000000000000000e+00
0.000000000000000000e+00
0.000000000000000000e+00
0.000000000000000000e+00
0.000000000000000000e+00
5.691555769932724398e-03
1.231323942805725123e-02
2.865149255714051057e-03
0.000000000000000000e+00
0.000000000000000000e+00
0.000000000000000000e+00
0.000000000000000000e+00
0.000000000000000000e+00
