-2.886
-2.00399
-1.89799
-2.09599
-1.89999
-2.11399
-2.71799
-2.01599
-1.13799
-1.76399
-2.35599
0.028009
0.556006
-0.563992
0.292007
-2.10199
-2.57399
-2.36399
-0.549991
0.12601
0.43801
0.374008
-0.377988
-2.16199
-2.65199
-2.33999
-1.95799
-1.66799
-0.819992
-1.49999
-0.153989
1.21401
0.164011
0.0480103
0.924005
2.20001
0.562006
-0.281992
-0.209995
-0.431992
0.580008
2.85601
0.486011
-1.25199
-2.48999
-2.20799
0.00600586
1.04001
-0.221994
-1.44399
0.0920105
-0.531995
-1.70199
-2.96799
-2.00199
-0.987991
-1.70199
-2.10399
-2.40999
-1.25999
0.156009
1.63401
2.20201
2.25601
1.42001
0.678009
2.11201
0.940009
0.490009
0.88201
2.62601
3.722
2.96401
1.03601
0.0640045
0.926004
1.54201
1.62401
0.118005
-0.833997
-0.247992
0.0520081
-0.00799255
-1.94199
-1.73999
-1.19599
-1.47599
-1.73799
-1.63399
-0.555991
-0.623993
-1.35799
-1.09399
-0.47399
0.628009
0.936008
-0.369992
-0.511993
0.894006
2.22601
1.71801
0.518011
0.0800079
2.27201
3.30801
3.09601
1.32601
1.44201
0.842007
0.822009
0.542007
1.88801
2.93601
2.54201
3.95401
4.02401
4.13001
3.70801
3.92601
3.22601
2.74801
2.56001
1.95601
1.79601
1.37801
0.540012
1.04801
1.34001
1.52401
1.09801
2.17801
2.63201
4.36801
4.64801
4.39001
4.78201
5.20001
4.998
3.80201
4.06601
4.68201
4.61801
4.332
3.82801
4.22201
4.29401
3.59401
3.652
3.53401
3.33601
4.11201
4.88001
3.61401
3.21801
3.22601
3.37001
2.31001
2.53201
2.19201
2.40201
2.75801
4.01401
4.40001
4.66201
5.26601
5.61801
4.40801
5.00001
5.17801
5.17801
4.51201
3.62601
4.82801
4.11801
4.52801
4.67401
4.56201
3.86001
4.37801
4.51601
3.44001
2.63601
3.20401
3.48601
3.74801
3.55201
3.64601
4.36001
4.50601
4.26201
4.70001
4.23201
4.65801
5.00401
4.77401
5.46801
5.33201
4.77001
5.81801
5.96201
5.56401
4.90201
3.442
3.07601
3.47801
3.45601
3.53601
4.19601
3.49601
2.97801
2.95401
2.73001
2.38001
2.72401
2.61201
2.25001
1.96201
1.28201
1.40801
2.23601
2.94201
4.10801
4.04201
3.06201
2.79401
2.94601
2.53401
2.71201
3.908
3.54801
4.05001
5.01201
4.95001
4.67801
3.79201
3.80001
2.11401
0.526007
2.44001
4.12601
5.00801
4.87801
4.98401
5.27801
4.47801
4.46201
3.96201
3.50601
3.29401
3.20001
2.89201
3.28401
3.83401
2.93001
3.25601
1.99201
1.60801
1.61801
1.66801
2.02001
1.658
1.66001
0.92001
0.170007
-1.03599
-1.58599
-1.51599
-0.993994
-0.949994
-1.408
-1.852
-0.233994
0.740005
0.612006
-0.225995
-0.477994
-0.749991
-0.519992
-0.213992
0.444009
-0.0239929
1.03601
1.06401
1.25801
1.49601
2.09201
2.31401
1.96201
0.800006
0.658008
0.822006
0.460007
-0.175989
0.054007
0.858011
0.806006
0.722006
0.134009
-0.68399
-0.585989
-0.749994
-0.357993
-0.561993
-1.00199
-1.51199
-2.292
-2.21599
-1.77999
-1.764
-0.687994
-1.89599
-1.83599
-2.44199
-2.298
-2.34799
-1.90199
-1.79799
-2.00599
-2.63399
-2.53999
-2.96399
-2.82599
-1.38599
-0.613992
-0.341989
-2.03399
-2.69199
-2.83199
-1.03399
-1.16199
-1.23799
-1.17599
-0.619992
-1.16199
-1.72399
-2.69199
-2.41999
-1.76199
-1.24799
-1.77999
-2.08599
-2.51999
-2.70199
-2.08999
-1.33199
-1.60999
-1.86599
-1.85799
-1.86799
-2.33999
-2.71199
-2.27799
-1.61999
-1.95599
-2.57999
-2.21999
-2.16199
-2.242
-1.90999
-2.33399
-2.83399
-3.43599
-3.17599
-3.42399
-2.09199
-1.85199
-0.269992
-1.40799
-1.98399
-1.66199
-2.13399
-2.03199
-1.39599
-0.26199
-1.66199
-1.86599
-2.25599
-1.30799
-1.16799
-1.90799
-1.77399
-1.78199
-2.79999
-1.82199
-2.00399
-2.59999
-0.463992
0.65401
-0.629993
-1.54599
-0.721994
-1.51999
-1.90999
-1.93999
-2.12599
-1.36399
-1.09999
-1.16999
-0.927994
-0.339993
0.31601
0.604007
-0.731992
-1.52599
-1.58399
-0.851993
0.54201
0.73801
-1.56199
-2.20799
-0.30799
0.0220062
-0.375995
-0.589993
-0.687991
-0.16799
0.526007
0.932007
-1.06799
-0.137994
1.97001
3.28801
1.03001
-0.499991
-0.571991
-1.57799
-2.34599
-1.82199
-0.205994
0.470007
-0.117993
-0.331995
-1.23999
-1.23599
-0.221991
-0.561993
-0.217993
0.210013
-0.477991
0.442007
1.03001
0.438007
-1.28999
-0.275992
1.30801
2.17601
1.69801
0.802008
0.408011
1.86401
1.79201
2.08201
1.77601
1.62401
2.24801
0.402008
-1.03599
-0.861993
-1.13399
-1.28199
0.170007
0.130005
-0.491995
0.392007
1.43401
0.574011
-0.425995
-0.679993
-1.38799
0.472006
0.364011
0.228006
1.10801
0.516006
0.908008
-0.0499878
0.0880035
-1.05799
-0.627994
-0.581992
1.16201
1.72401
1.26601
1.91401
1.43
0.538007
0.550009
1.79401
2.59401
2.81601
2.95201
3.74201
3.35201
4.192
4.34601
4.25601
3.58801
4.08801
4.61201
4.75001
3.84401
3.44801
4.47001
4.40001
4.06601
3.56601
2.77801
2.73201
2.75601
4.13401
4.52401
3.47201
3.77601
4.64601
4.77401
5.19401
5.52401
4.67601
4.46601
3.20201
3.45001
3.99001
3.00201
2.342
2.81201
2.31201
3.83401
2.23801
4.15601
5.87201
6.34801
5.49201
6.15201
5.15001
4.41401
4.50001
4.28601
5.05201
5.42601
4.88201
5.55601
5.59201
6.29801
5.40801
5.19201
4.74801
4.77201
4.86601
5.02801
5.07001
4.51201
4.00601
4.51001
4.41601
4.22201
3.89401
4.26801
3.98
3.49801
4.44601
3.77401
4.21601
4.24401
4.53801
4.22001
4.776
3.71801
3.91801
3.708
3.35401
3.63401
2.98401
3.76401
2.71601
2.91201
3.23601
1.99801
2.06201
2.91801
2.99201
2.78801
3.13801
3.23001
2.89401
3.02401
3.09201
3.53801
2.90801
3.34401
3.21601
3.69201
3.88201
4.36201
4.65801
4.88201
5.13801
4.67601
4.64001
3.64601
4.07801
3.54801
3.60201
3.17601
3.74801
4.27201
4.76801
4.82001
4.14601
3.87201
3.48001
3.10801
3.00801
2.686
2.61001
1.98801
1.37601
1.67001
2.42
2.55801
3.11401
2.69801
1.58201
1.47401
0.588007
1.05201
1.09001
1.66401
1.41201
1.18601
0.458008
1.50601
1.90801
1.86201
1.67601
1.73401
1.70201
0.628003
0.568008
0.674008
2.27401
2.88001
2.51801
2.17001
1.76201
1.30601
-0.443988
-1.32599
-0.21799
0.954007
1.34401
1.57401
1.36601
1.33801
1.04401
-0.131992
-0.953992
-2.22399
-1.22199
-0.905991
-1.45399
-1.50199
-1.528
-1.06599
-0.775992
-1.336
-1.45599
-0.933994
-0.771997
-1.42799
-1.13399
-1.30199
-1.30399
-0.343991
-0.909994
-1.808
-1.76799
-1.04999
-1.14599
-0.915991
-0.923993
-0.905991
-1.15999
-1.27799
-0.715991
-1.24399
-1.59799
-1.38999
-1.76199
-1.80599
-2.32399
-1.79599
-2.10799
-2.09599
-1.87599
-1.67199
-1.92199
-1.61799
-1.60199
-2.09199
-1.95799
-1.97999
-2.12599
-2.25399
-1.35999
-1.58799
-1.35199
-1.50799
-1.05999
-1.76399
-0.897989
-0.813992
-0.335992
-2.01799
-2.17199
-1.47199
-2.11999
-2.74599
-3.17199
-2.80999
-3.51599
-3.54199
-2.22599
-2.22199
-1.83599
-1.88399
-1.78399
-2.28999
-2.76799
-2.39999
-2.58999
-2.71599
-2.83999
-2.92599
-3.04599
-3.22599
-2.77599
-2.42599
-2.16599
-2.83199
-2.80399
-2.78799
-1.71799
-1.32599
-1.03599
-0.593991
0.328009
0.740009
0.428006
0.668005
0.152008
0.394009
-0.267993
0.146008
0.228009
1.31801
1.35001
2.12601
2.66401
-0.413992
-1.15399
-2.55999
-3.21799
-3.09599
-3.15199
-1.66599
-2.47599
-1.51599
-0.127994
-0.0479919
-0.661993
-2.206
-2.65199
-0.311993
-2.11199
-1.55999
-1.88199
-1.11399
-0.913992
-1.84399
-2.35799
-1.43199
-0.827991
-2.04799
-0.841992
-0.0199921
0.120007
-0.753989
-1.90799
-1.06999
-0.449991
0.460007
1.55401
0.844009
-0.913992
-1.152
-0.821994
0.128009
0.758008
0.622009
-0.0439911
-0.473993
-2.00799
-1.37399
-1.33799
-0.737991
-0.569992
-2.28799
-3.01999
-2.05399
-1.59599
0.134009
1.12801
2.10001
2.45201
2.41201
0.872009
0.79801
0.888013
-0.127991
-1.27
-0.403992
1.35001
2.57601
1.69801
-0.449991
-0.181995
-0.0659912
0.562012
0.518008
1.15801
0.624011
-0.0479919
-0.349991
0.182007
1.10001
0.916006
0.536011
0.424008
0.224008
-0.37999
0.568008
0.690005
1.89801
1.948
1.78601
1.97201
1.02601
0.446008
2.03201
1.65801
0.13201
0.434009
0.0640106
0.0400055
-0.173996
0.222009
1.87001
2.63801
3.64401
4.37801
5.25601
6.22601
5.32001
5.61201
4.77801
4.09001
4.39601
5.03801
6.42801
6.72
6.19001
4.79601
3.92401
3.36801
3.27601
3.33401
4.52601
4.57401
4.74801
3.72401
2.72201
2.07601
2.33601
2.342
1.84801
2.77401
2.55201
3.76401
3.652
3.67401
3.36201
2.62201
1.34601
1.74801
2.14601
3.34801
4.70601
3.84601
4.95401
5.37001
5.89801
5.67801
5.06201
5.29401
4.53601
6.18601
5.17601
3.59001
3.39201
3.72601
3.83801
4.59601
4.19001
4.79401
4.40401
3.82601
3.96801
4.17001
4.81801
4.40801
4.48201
4.26601
4.39201
4.65001
4.89401
4.32201
5.00801
5.61601
5.13601
4.21201
3.98
3.97801
4.15801
4.47401
4.20801
4.79001
4.736
4.63601
4.04201
3.38801
3.71201
3.15001
2.37801
2.26201
2.01801
2.59401
3.30201
3.89201
4.47201
4.74401
4.23201
4.72201
4.40201
4.73001
4.96801
4.93401
5.52601
4.92401
5.15201
5.53001
5.16201
4.50801
3.86401
4.10801
3.16601
4.31001
2.42601
2.13
1.78201
1.70401
2.26001
3.03201
3.67401
3.22001
3.13201
2.41801
3.01201
3.15601
3.38601
4.78
4.87801
4.94001
3.93401
4.21001
4.06601
3.67001
2.57801
1.66201
1.82001
2.64201
2.842
1.52801
1.636
1.80201
2.55001
2.03601
3.13201
3.23801
2.29801
1.95801
1.24401
1.04601
-0.04599
-1.06799
-1.296
-0.693994
0.338004
-0.233994
-0.92399
-1.67799
-1.65199
-1.92999
-2.21999
-1.18999
0.190009
-0.569995
-1.13399
-1.69999
-1.67399
-0.68399
0.808008
1.31401
1.25201
0.37601
0.540009
0.224011
-0.549991
-1.748
-2.04799
-1.85199
-1.20599
-1.19599
-0.641992
-0.927994
-1.542
-2.07799
-1.87199
-1.55399
-1.85199
-1.77399
-2.13599
-2.09199
-2.53799
-2.40599
-1.77999
-0.177994
0.318008
-0.887988
-0.999991
-1.09799
-1.98599
-2.04199
-1.99599
-1.68199
-1.986
-2.43799
-1.62799
-0.199994
0.854007
-0.0799927
-0.313992
-1.42999
-1.086
-1.02399
-0.623993
-0.893994
-1.36599
-1.66199
-0.87399
-1.47999
-2.49399
-2.59999
-2.28999
-2.39799
-1.14199
-1.02599
-1.96799
-1.83199
-1.83999
-2.202
-1.76199
-1.47399
0.21601
-0.0299896
-0.365991
-1.30999
-2.01199
-1.50999
0.472006
0.958011
0.130005
-0.537991
-0.689993
-1.12799
-0.149991
2.908
0.0160095
-1.78799
-2.25999
-1.42399
-1.71399
-1.78799
-1.65599
-1.96199
-2.64399
-2.93599
-2.66199
-2.51599
-1.61399
-2.39999
-2.43199
-2.17199
-2.16199
-3.25599
-2.48799
-1.82799
-1.39799
-0.969992
0.930008
0.700006
-1.11999
-2.04399
-1.36799
-0.353995
-0.649991
-0.313992
0.624008
-0.423993
-1.31999
-1.79199
-1.98799
-2.51399
-1.77599
-0.521994
0.270007
-1.24599
-1.78799
-1.39399
-1.53199
-0.149991
-1.16599
-1.30799
-0.931995
0.442007
1.39401
2.048
-0.157996
-0.993994
-1.21399
-0.93999
-0.341995
0.598007
0.468008
-0.187991
0.276007
1.08401
0.620007
0.992007
-0.441992
-1.21199
-1.64599
-1.40199
-1.64199
-1.23599
0.508008
0.712009
0.0560089
-1.04399
-0.30199
0.504007
0.34801
-0.675995
-0.827994
-0.963992
-1.17199
-2.05599
-1.144
-0.425992
0.438007
0.202008
-0.367993
0.320007
1.07201
1.476
2.47601
1.21801
-0.27399
1.76001
2.61201
3.19601
0.668008
-1.31399
-2.07199
-0.401993
-0.801993
-1.67399
-0.17999
1.67401
1.00401
0.754007
1.17401
1.014
0.91601
2.04801
2.94601
1.388
0.0700073
0.0920105
0.466006
1.43601
0.790006
0.606009
0.224005
-0.559991
-0.607993
-0.183994
0.646008
2.21601
3.85001
3.18601
2.92401
2.93201
2.24601
1.21201
-0.865991
-0.413989
0.0500061
1.52801
2.25601
2.35201
2.50601
2.79601
3.99601
5.00601
5.03601
4.00001
4.62001
4.66001
4.85001
3.97201
3.44801
4.04801
4.25001
4.40201
4.29201
3.55001
4.59201
3.51601
3.32201
4.41801
4.69001
4.67001
5.20201
5.00001
4.82201
3.68201
3.75201
4.20401
3.82801
3.00401
2.70801
3.13801
3.08001
2.98601
4.12001
4.82801
4.42401
5.06601
3.99601
3.89801
3.35001
3.70201
3.66601
4.62601
4.09401
4.40801
3.82801
2.97601
2.44201
2.45201
2.52801
2.89201
2.72801
3.79001
4.42401
4.282
4.41
3.94201
3.76201
2.04401
2.17801
3.92601
3.398
2.26801
2.99201
4.02201
3.03801
3.36201
4.19401
3.84001
4.66001
4.64601
5.09201
3.88601
2.41201
2.50601
3.22001
3.17001
3.29601
3.35201
3.198
3.60401
4.59201
3.59801
3.46601
3.34801
4.10601
3.15201
2.63401
2.95801
3.37401
3.51401
4.31801
3.89801
4.54601
4.33401
5.03401
4.18801
4.74201
4.27201
4.61201
3.22201
3.71401
4.04601
3.81601
4.25201
3.43201
3.00801
3.42201
4.00601
3.99801
3.82401
3.95001
4.00401
4.54201
4.88201
4.39201
3.62401
3.93201
3.92201
3.63601
3.298
3.47401
3.59601
3.47601
3.21601
3.13601
3.34601
3.18801
2.37801
2.94801
2.45201
2.91401
1.39401
0.552008
0.522009
0.622009
0.136008
-0.171991
-1.15399
-1.34599
-1.49199
-0.995993
-0.523993
1.03801
2.21601
2.99801
2.83601
1.59801
1.02201
-1.13399
-1.59199
-0.647992
-1.16799
-1.55599
-1.04799
0.526004
0.152008
-0.261993
-0.153992
-0.997989
0.162009
1.34801
1.16601
-0.227991
-1.50599
-1.08799
-1.85199
-1.64599
-1.00399
-1.27799
-1.54599
-1.90999
-1.66999
-1.27799
-1.26799
-1.09799
-1.68799
-2.62199
-1.92799
-2.33199
-2.27599
-2.40599
-1.72199
-1.748
-1.11599
-1.16199
-1.13599
-1.36399
-2.42599
-2.03399
-2.23199
-2.05399
-2.36799
-2.06799
-1.96599
-1.50399
-1.98799
-2.60599
-2.11199
-1.94799
-2.14799
-1.71599
-1.914
-1.93199
-1.43799
-1.48799
-1.33799
-1.72399
-1.24199
-2.41799
-3.02799
-2.25799
-1.97199
-0.531992
1.22801
-0.767993
-2.32799
-1.96799
-1.84999
-2.04399
-1.95799
-1.63199
-2.14399
-2.19399
-2.47199
-0.755991
-2.05399
-3.01199
-2.79599
-1.60399
-1.02199
-1.70799
-2.21199
-2.54199
-2.92599
-3.36999
-2.25599
-2.71799
-2.46599
-2.10999
-1.59199
-1.85799
-0.809995
-0.787991
-1.57999
-1.23199
-0.37399
-0.0259949
-1.39599
-1.77799
-0.353989
0.00201111
0.382007
-2.03999
-1.01799
-0.621991
-2.31199
-2.57599
-0.863989
0.148007
1.14201
-0.383987
-1.51799
-1.37399
-0.74599
0.108014
-0.427991
-1.26199
-2.55599
-1.80799
-0.943994
-1.69
-2.47199
-2.53399
-2.10999
-1.42999
-1.92199
-2.03199
-0.0379944
0.572006
-1.24399
-2.44199
-1.71199
-0.961993
-0.979996
-1.38399
-0.861993
0.268008
1.28601
-0.237991
-1.02599
-1.51799
-1.45199
-1.90999
-0.685992
0.268005
-0.525995
-3.21199
-2.00199
-0.827994
-0.885992
-1.02199
-1.48799
-1.15599
-0.463992
-0.827988
0.0440063
-0.38999
-0.341992
0.392011
0.562012
0.456006
1.70201
1.45801
1.59601
0.604004
-0.493991
-1.14399
-0.297992
-0.00799255
0.304007
0.284009
0.99801
0.88201
0.654004
1.18401
1.55401
2.65601
2.75401
1.51801
0.602011
0.63801
0.842007
2.52801
3.33201
3.07201
3.14801
3.93801
3.45201
2.11201
0.614011
1.04801
1.71601
1.31201
-0.575992
-0.597992
0.128009
1.50201
1.60201
0.748013
0.992007
-0.0899902
-1.16799
-3.13599
-3.89199
-3.11599
-3.77799
-3.47399
-2.16599
-0.495993
1.45801
2.86601
3.40001
3.18401
3.54201
3.20201
3.00001
4.27601
5.18201
6.74601
5.81201
5.00201
4.554
4.19801
4.21401
3.60201
2.50401
2.04601
1.52201
1.61601
1.66601
1.50801
2.16801
2.41201
2.83401
2.68801
4.08801
3.20201
2.65401
2.83601
2.23401
2.12201
2.26601
3.18801
4.16401
4.16201
3.56201
4.31601
4.75801
4.90201
4.06801
5.42201
5.33601
5.56401
4.95601
5.07001
4.552
4.55201
4.02801
4.02201
3.88801
3.69601
4.02001
3.74801
3.14401
2.71601
2.62201
2.61601
2.20201
2.47601
2.34801
2.14201
2.53001
3.44601
4.32201
4.23801
3.39801
2.74401
2.208
1.76801
2.61401
3.07201
3.55801
3.55401
3.90401
3.32201
3.64401
4.23201
4.04401
3.97601
3.87601
3.63801
4.26801
4.52001
4.59601
4.798
4.46801
3.74601
3.58601
3.77201
4.06601
4.15601
4.50601
4.70201
4.50001
4.13
4.22
4.57001
3.90401
3.33601
3.77601
3.99601
4.88401
4.90201
4.48201
4.26801
3.71401
3.51001
3.54201
3.23601
3.13201
2.89201
2.79201
3.19601
2.42001
2.31001
2.21601
2.41401
1.82601
1.46401
1.61801
2.44801
3.01801
3.33201
3.34001
2.81001
1.95001
2.02601
2.76001
2.11801
1.69401
1.97401
1.90601
2.04801
0.974011
-0.563989
-0.937991
-0.593991
-1.58799
-1.20199
-0.813992
-0.48399
-0.50799
-0.093988
0.762009
0.978009
1.64201
2.82601
2.61201
2.39601
2.10601
1.89801
0.760007
0.424008
0.38201
-0.0499908
-0.42999
-0.0939972
-0.30199
-1.04399
-1.392
-1.452
-1.49199
-1.70399
-1.47799
-2.05799
-2.26999
-2.28399
-2.16599
-1.43599
-1.67599
-2.08199
-2.58799
-2.76999
-2.63799
-1.72999
-1.91199
-2.00599
-2.09799
-2.33199
-2.19599
-2.11599
-1.84799
-1.39599
-1.47199
-1.78199
-2.07599
-1.88599
-1.64799
-1.79199
-1.22599
-1.702
-1.60999
-1.94399
-2.31999
-2.10999
-1.81399
-2.09199
-2.86199
-2.78799
-2.98999
-2.75199
-2.69799
-2.27199
-1.40599
-2.05199
-2.50999
-2.76999
-1.98799
-1.51799
-1.70799
-2.27799
-1.80999
-1.35999
-2.10199
-2.25599
-2.74
-2.69199
-2.25199
-2.10399
-1.32399
-1.76199
-1.11199
-0.363995
1.02801
-0.439993
0.0580109
-0.693991
-2.09199
-2.27799
-1.75999
-2.94999
-2.82599
-2.66799
-1.70599
-1.20399
