-1.613965345485995938e+14
2.178324407511734375e+12
-3.016252214004843750e+12
4.567394699935859375e+12
-2.340757105184142188e+13
-7.241856995461156250e+13
4.707250314270693750e+13
5.117671170751426562e+13
5.905720838874290625e+13
4.927661332632025000e+13
-7.408869534002573438e+13
-1.504572600504595625e+14
-1.304650422034360625e+14
-2.709197096466100312e+14
-2.566999332333048750e+14
-1.113485964789685938e+13
2.367356078914169531e+13
-1.401149120870412812e+14
8.798791259457890625e+12
-1.647493773943690938e+14
3.194526684127246875e+13
1.479591964002714844e+12
-1.893413594711604375e+14
-1.923798372657803750e+14
-2.137611230201444688e+14
-1.007566192938980781e+14
2.736607618209358984e+13
1.766561306131775781e+13
1.414444643360599688e+14
-2.816205159814531250e+13
-6.783183767507153125e+13
4.144282733041460938e+13
9.080352909547870312e+13
-4.689205287757189062e+13
-2.717293659317252500e+14
-1.670555128513428438e+14
-1.610982524270410000e+14
-2.455952063240149375e+14
-1.634277212032132500e+14
-1.357775127783182500e+14
-2.500072724006208438e+14
-3.930503217892958125e+14
-3.502217785007705000e+14
-1.663723466150417812e+14
-8.736983404757715625e+13
-2.967140321839337500e+14
-2.843578690508041250e+14
-2.487331226373384688e+14
-1.606444548809600938e+14
-1.724785276272911562e+14
-6.336835825869512500e+13
-6.514544577483409375e+13
-1.021968841915976875e+14
-6.356349812080153125e+13
-2.518462591777145000e+14
-1.705041839536519375e+14
-8.643828009056562500e+13
-6.515595173300329688e+13
-1.114525959507682812e+13
-8.653413775316937500e+13
-8.394465913273489062e+13
9.683612956355603125e+13
-2.083247453504589062e+13
1.701778316867656250e+12
-4.839407966730268750e+13
-1.384042138175764375e+14
-2.681300108521756250e+13
-1.104104949083429688e+14
-3.184667762704364062e+13
9.557584689207218750e+12
-1.229124149781640625e+13
-7.153759036558046875e+13
2.001967984771362500e+13
-8.845719280309898438e+13
-5.163894728849496875e+13
7.408355040606270312e+13
-8.812778311883500000e+13
-1.083061879369947812e+14
-1.116991893891423750e+14
-1.761266662231950625e+14
-1.326322014340291875e+14
-4.899019627754787500e+14
-3.681850438329774375e+14
4.577909437305333594e+13
2.100331936285978125e+13
-2.994480971678781250e+12
-2.323083298127673438e+13
2.509695088688199219e+13
2.289148339768209062e+14
1.084718434655156562e+14
2.494933738144884062e+14
2.105653364066208750e+14
-1.235448833980173750e+14
2.995821575460320312e+13
4.416094907549187500e+13
5.629627036336392188e+13
5.900850005366317188e+13
2.296809100188908750e+14
-5.247692147471076562e+13
4.330370424695768750e+13
1.376070444405026406e+14
2.003766865320436875e+14
1.800579784665768750e+14
7.822982362665228125e+13
-2.689261017161116250e+14
-3.517183081194556250e+13
1.370096392565295000e+14
1.028474205504151875e+14
1.846475105506705000e+14
6.953167854539058594e+13
3.345337360879156250e+12
9.490795612706421875e+13
5.135062335812993750e+13
-3.800360459263987500e+13
4.997649870714142188e+13
-1.021005446363123906e+14
5.648303684080451562e+13
-9.451224723318809375e+13
5.127702307041062500e+12
1.694145515681560000e+14
2.479885462620201875e+14
2.637808063999317812e+14
3.103242042724458125e+14
1.328521312340125469e+14
-7.160820866755928125e+13
-1.411824903103895000e+14
1.501435304559641250e+14
3.277987796722365625e+14
3.083250132540796875e+14
2.987768206457660000e+14
1.801535274175842188e+14
1.770780061221715000e+14
7.109465732295837500e+13
-1.372512045861337188e+14
-3.727325535669138281e+13
-3.742787068364156250e+13
4.274514731683552344e+13
-5.768866862389160156e+13
-7.529315806967960938e+13
-1.381774247113874844e+14
-9.768777472706950000e+13
2.763526334502760938e+13
3.674873756510218750e+12
-5.100961452714404688e+13
-4.753630108912295312e+13
-6.704112403875218750e+12
1.312229307260996250e+14
7.825216742201182812e+13
8.902231728370882812e+13
-1.136434895880099844e+14
-3.299643802365690625e+13
-6.099997296486362500e+13
1.202531702577421875e+12
-2.208845972440785000e+14
-2.105389374242692188e+14
-2.054273466351817500e+14
-2.450414165703646250e+14
-3.016640568152456250e+14
-2.434359274008447812e+14
-7.131998773732656250e+12
-4.297405874617937500e+13
-1.999148439992573125e+14
-9.749489476902512500e+13
5.054179485926709375e+13
-8.616562376403200000e+13
-1.300384797271402188e+14
-1.193650201959868750e+14
-1.604673098372269375e+14
-1.380909435472439688e+14
-6.199539945393584375e+13
5.279692305008031250e+12
-2.138506289533306250e+13
-1.133963528133063438e+14
-7.321004926504110938e+13
-1.044031476273803906e+14
-1.070940066274173125e+14
8.562117000865847656e+12
-3.759009045769157031e+13
-8.344902196650900000e+13
-1.011724274858215000e+14
-4.993712387232240625e+13
-7.438848424829459375e+13
-1.433832136282433438e+14
-7.526990465862765625e+13
-4.726748006409351562e+13
6.992194440935937500e+11
-1.224098610670567188e+14
-6.535590015387782812e+13
1.686042813160375000e+12
-1.811275596347133750e+14
-2.738478636985341875e+14
-2.647362348003530938e+14
-1.479705189023929375e+14
-4.530139230209600000e+13
-4.206196386008888281e+13
-1.926795562961761562e+14
-2.687742029441134062e+14
-1.784019828084259375e+14
-1.300803771247212188e+14
-4.481682664499543750e+13
-1.763381206158088750e+14
-2.984127350172358750e+14
-1.527939138439892500e+14
-9.981222141767032812e+13
-1.869078243567883125e+14
-1.182938838049284375e+14
-1.127234185865066250e+14
-8.016743999109004688e+13
-3.841865348744880469e+13
-2.983308247549125000e+13
7.292243661856109375e+12
-3.987958092160337500e+13
1.531444510740243750e+13
5.779439314136300000e+13
-2.950575165967878125e+13
5.798195674104218750e+12
-8.138078110167367188e+13
-4.374991084673858594e+13
-1.316502828305150781e+14
-2.022679713905862500e+14
-2.882365732011958750e+14
-1.295052426561176562e+14
-1.029613283412748438e+13
5.175817735661662500e+13
4.369754026653865625e+13
1.698086125018019922e+13
-7.671806474018328125e+13
-9.604124361248996875e+13
-1.191408098895227969e+14
-1.671105630339721250e+14
-1.717606909341484375e+12
-1.412242510979993438e+14
-1.679333212182814688e+14
-2.295790301804617500e+14
-1.117574341948307031e+14
-3.635761726208715625e+13
1.020057366853376719e+14
5.271334466625004688e+13
1.397825709038764062e+13
-7.793458040610221875e+13
-1.162277431581117812e+14
-1.844770221546651875e+14
-1.465989509664418750e+14
-1.980335384459669375e+14
-1.936553701713688750e+14
-1.689296705955185625e+14
-2.996619144963883594e+13
-1.997972707805344375e+14
-1.619992540973033125e+14
-2.468529674250836250e+14
-2.968253839620520625e+14
-2.490612121547709375e+14
-3.568385611987747500e+14
-2.333647575074580625e+14
-3.733825819702245625e+14
-3.235672797604999375e+14
-2.059021118499590000e+14
1.539600597043902344e+13
6.927738887312738281e+13
2.347639858721854688e+13
1.408702087408015625e+14
-5.707068889963678125e+13
-3.380446619045876250e+14
-2.708444400939266875e+14
-2.514550506248220312e+14
-1.579445551683148125e+14
-1.458171853198600000e+14
-1.909945792538481562e+14
-2.507376375014785000e+14
-2.966162916710827500e+14
-3.700682978431007500e+14
-4.498125038537977500e+14
-2.265254488053940000e+14
-3.762433808176592500e+14
-2.537444790457843750e+14
-1.646055181090080469e+13
-4.786386097462658594e+13
-8.295590416349181250e+13
-1.788762705211443125e+14
-2.963565514879032500e+14
-2.226573026512818125e+14
-2.573003820600185625e+14
-2.649536905508880000e+14
-3.940003315621338125e+14
-4.250132685058796250e+14
-4.617577231562354375e+14
-5.163509513197531875e+14
-2.546259251350840312e+14
-1.549034189714566875e+14
-1.718336702988707500e+14
-1.312926722637380156e+14
-1.702615570537365938e+14
-1.066348710575604688e+13
-1.672150901818520938e+14
-2.091435385124621562e+14
-1.854127965994002188e+14
-3.375572397503926250e+14
-3.167664685035946250e+14
-3.166133004706566250e+14
-1.451125961983628125e+14
9.937585283660900000e+13
5.234170483263245312e+13
9.965499969447953125e+13
-5.798045044037802344e+13
-1.151295285914986094e+14
-4.180785651682639844e+13
3.695604832431645312e+13
-1.011955764269243750e+14
-6.306110350919790625e+13
-1.348034930377287344e+14
-8.857123444942776562e+13
-1.922952235198581250e+14
-1.300938957343937344e+14
-7.192336230526918750e+13
-1.242272249020598281e+14
-2.094129130467940625e+14
-9.759077881613768750e+13
-2.085260111365589062e+13
-1.278819841413339688e+14
-2.620887733984272812e+14
-2.856074298707452500e+14
-1.695143844466052188e+14
1.752851168948289062e+14
-5.124004777383878125e+13
-1.667855726296994688e+14
-1.914067272043153438e+14
-1.129093463688960625e+14
-1.132161754676515938e+14
-2.889652603453795625e+14
-4.306549518871461875e+14
-4.799213974845360000e+14
-3.083737628656370625e+14
-1.870056915021166250e+14
-2.728985895699476562e+14
-2.492676361236746875e+14
-3.211846807599345312e+13
-1.715357546940372500e+14
-1.365880640054815312e+14
-1.983526504277848125e+14
-3.029656957535416875e+14
-2.746075610054235938e+14
-1.183383433375162969e+14
-2.366121089841702812e+14
-2.679797740536000000e+14
-3.871552995674034375e+13
-6.031769349013460938e+13
-1.322246996795496719e+14
-1.194229620164224062e+14
-5.141954514611023438e+13
-2.293102346529780469e+13
-2.404255581149906250e+12
2.996817418503014062e+13
-6.239603878695377344e+13
-7.292138945130231250e+13
-6.528614539308211719e+13
-8.955785615807650000e+13
-1.069660318322556406e+14
-7.264914640811303125e+13
-9.687902275222746875e+13
-4.099267511848368750e+13
-1.725895872925769062e+14
-2.444255493757951250e+14
-2.141313757855021094e+13
-1.290576266417843125e+14
