0.004157
0.002152
0.001192
0.003785
0.001225
0.002027
0.00182
0.00478
0.00278
0.00189
0.000765003
0.0
0.002237
0.000817001
0.001225
0.000245001
0.000702001
0.004495
0.00325
0.002987
0.00269
0.002845
0.003532
0.001452
0.002525
0.001497
0.001787
0.003765
0.00219
0.00128
0.00358
0.004695
0.006225
0.001742
0.000932001
0.004184
0.00687
0.003822
0.000992
0.003522
0.001027
0.002765
0.005822
0.000832003
0.001412
0.00321
0.002025
0.002625
0.001665
0.000737
0.000720002
0.000750002
0.0
0.000390001
0.001897
0.0023
0.004385
0.00451
0.003744
0.004347
0.005892
0.007369
0.004237
0.003737
0.00466
0.00477
0.002567
0.004422
0.007569
0.006352
0.00618
0.005457
0.005169
0.005602
0.00772
0.00902
0.006869
0.003815
0.003172
0.002457
0.002327
0.003342
0.008802
0.006807
0.004497
0.003517
0.0053
0.008532
0.010019
0.009679
0.008112
0.007737
0.008302
0.006302
0.010762
0.009277
0.007515
0.007577
0.012442
0.01046
0.011182
0.00883
0.010255
0.009517
0.00748
0.008255
0.012342
0.013197
0.010027
0.009812
0.010047
0.013757
0.016155
0.015007
0.01533
0.013422
0.010225
0.011807
0.01244
0.009782
0.006134
0.010305
0.010265
0.004677
0.010107
0.012837
0.00836
0.017125
0.01685
0.010235
0.012937
0.010842
0.012892
0.01838
0.020615
0.022202
0.025127
0.026362
0.025564
0.025727
0.024337
0.024535
0.0263
0.024085
0.019915
0.01599
0.022037
0.013605
0.014427
0.016169
0.015277
0.017142
0.01982
0.02062
0.017522
0.015655
0.016807
0.016967
0.01387
0.013814
0.021842
0.029985
0.027835
0.023434
0.02906
0.028784
0.027677
0.029377
0.03173
0.034071
0.032679
0.034836
0.036524
0.031052
0.024945
0.024749
0.025807
0.02941
0.032879
0.031339
0.032863
0.031893
0.033134
0.032345
0.024182
0.023309
0.025472
0.030047
0.026542
0.029219
0.032499
0.029075
0.027865
0.028552
0.03005
0.029507
0.032267
0.026342
0.02364
0.020017
0.015889
0.022457
0.02175
0.018517
0.020687
0.023357
0.022915
0.024937
0.022515
0.023402
0.025259
0.027587
0.033031
0.033671
0.030417
0.030712
0.028765
0.031493
0.032515
0.03005
0.020775
0.020902
0.022417
0.025602
0.026415
0.02607
0.026515
0.02779
0.028032
0.028557
0.024062
0.025075
0.02949
0.027522
0.024365
0.024832
0.024687
0.02577
0.02281
0.02273
0.029517
0.03172
0.031576
0.028427
0.021295
0.02036
0.016872
0.019825
0.02005
0.024642
0.024734
0.022094
0.018607
0.01776
0.019535
0.019757
0.015417
0.01368
0.01736
0.017672
0.020112
0.014547
0.008014
0.006832
0.0112
0.015757
0.017092
0.015512
0.01397
0.01048
0.010595
0.013642
0.013057
0.012855
0.013592
0.014489
0.014727
0.01229
0.01155
0.011907
0.007762
0.004715
0.00892
0.009877
0.008455
0.008182
0.008935
0.01258
0.011682
0.006455
0.003147
0.007157
0.009399
0.008225
0.009737
0.009425
0.011037
0.01186
0.010452
0.011532
0.010127
0.003092
0.005662
0.005287
0.008447
0.009785
0.007149
0.005242
0.004172
0.005252
0.00597
0.007187
0.00312
0.002902
0.00411
0.004897
0.006637
0.006609
0.006267
0.005457
0.003612
0.004335
0.00669
0.006915
0.005037
0.006817
0.003495
0.00168
0.00141
0.001652
0.002092
0.005824
0.0062
0.003575
0.000345003
0.001372
0.001875
0.0
7.50013e-05
0.003017
0.003485
0.001822
0.002257
0.0025
0.00073
0.002005
0.000902001
0.000107002
0.000862002
0.000835001
0.000342
0.000522003
0.000687003
0.000382002
0.001352
0.001525
0.002867
0.00234
0.0
0.002997
0.001029
0.00344
0.001815
0.000832003
0.000134002
0.006649
0.008207
0.00668
0.003667
0.002812
0.001437
0.000137001
0.001119
0.00202
0.002492
0.000690002
0.00144
0.002255
0.003645
0.004787
0.001892
0.002882
0.000522003
0.00076
0.001089
0.000795003
0.001272
0.002352
0.003437
0.00146
0.001244
0.000775002
4.20026e-05
0.000742003
0.000647001
0.002152
0.002382
0.001177
9.0003e-05
0.000285003
0.000587001
0.001547
0.002172
0.001352
0.00238
0.003309
0.00228
0.000630002
0.000564002
0.000292003
0.00212
0.004064
0.004974
0.002662
0.006127
0.006837
0.005925
0.008435
0.004847
0.004405
0.005579
0.007215
0.007067
0.001895
0.000672001
0.004897
0.002235
0.002062
0.003715
0.007132
0.005465
0.004747
0.008325
0.008132
0.00814
0.009382
0.00801
0.009872
0.011177
0.010872
0.009802
0.007997
0.009129
0.006532
0.0111
0.012195
0.012157
0.008992
0.006837
0.007685
0.009727
0.010057
0.00898
0.009317
0.004992
0.00892
0.006567
0.007697
0.007727
0.004432
0.00724
0.007564
0.008265
0.007445
0.01198
0.013727
0.013565
0.014025
0.015727
0.017715
0.016717
0.014402
0.012832
0.011927
0.011112
0.012532
0.014812
0.01265
0.00857
0.009962
0.017042
0.01783
0.01272
0.012542
0.01642
0.013985
0.012635
0.01517
0.01832
0.019757
0.01497
0.01921
0.017725
0.012684
0.016025
0.018157
0.009352
0.008435
0.010117
0.014982
0.021355
0.019917
0.023497
0.023197
0.01953
0.015322
0.014882
0.020435
0.02315
0.025117
0.021504
0.021054
0.020427
0.015527
0.01623
0.021839
0.023715
0.01819
0.017537
0.027677
0.02599
0.027017
0.027605
0.023562
0.023942
0.025252
0.025102
0.021875
0.016747
0.01697
0.016645
0.024077
0.031952
0.031277
0.030354
0.031534
0.031775
0.033044
0.033214
0.031085
0.028707
0.0285
0.028877
0.030267
0.028297
0.020115
0.018862
0.018547
0.017535
0.016377
0.01577
0.019797
0.024795
0.025032
0.022277
0.024682
0.031232
0.035024
0.03685
0.036512
0.036666
0.036115
0.035532
0.034677
0.036409
0.038464
0.035118
0.024737
0.02427
0.02731
0.030077
0.034854
0.036446
0.036271
0.038003
0.035573
0.033958
0.035052
0.034069
0.033168
0.027222
0.020997
0.021617
0.03057
0.031177
0.03
0.030227
0.026865
0.031566
0.036601
0.034269
0.031458
0.02997
0.034351
0.037573
0.035357
0.032565
0.035938
0.032693
0.033846
0.031564
0.02952
0.030949
0.029445
0.032203
0.032035
0.032191
0.02846
0.029425
0.028347
0.02827
0.028664
0.028357
0.029597
0.030292
0.03047
0.028705
0.030327
0.028907
0.027525
0.02563
0.023845
0.023785
0.023632
0.021835
0.022915
0.023482
0.02305
0.022304
0.022287
0.021187
0.022872
0.021285
0.020675
0.020762
0.02003
0.021177
0.022805
0.022477
0.023092
0.022695
0.024312
0.021462
0.020637
0.019357
0.01377
0.01842
0.016375
0.015457
0.013684
0.0141
0.013847
0.01319
0.013072
0.010739
0.009705
0.011027
0.01091
0.009115
0.008422
0.010322
0.012272
0.011017
0.010525
0.012555
0.008672
0.007289
0.010265
0.012415
0.011532
0.009105
0.00703
0.007074
0.0095
0.008455
0.008057
0.00776
0.009532
0.007857
0.007104
0.005889
0.002935
0.003635
0.003942
0.002985
0.003915
0.004167
0.005867
0.002137
0.002897
0.003185
0.004195
0.003004
0.001772
0.001149
0.00065
0.000695001
0.000937
0.000890002
0.0
0.000812002
0.00121
0.000697002
0.002152
0.00172
0.00151
0.003485
0.005977
0.002717
0.000460003
0.000385001
0.000465002
0.001625
0.0
0.003375
0.002657
0.000987001
0.000332002
0.002315
0.004019
0.002457
0.001875
0.000595003
0.0
0.0
0.000552002
0.000682
0.001222
0.000215001
0.000159003
0.001539
0.002363
0.00079
0.000273
0.001823
0.00118
0.002048
0.001675
0.006095
0.00339
0.000965003
0.00176
0.002617
0.000575002
0.002463
0.003828
0.006843
0.006828
0.003903
0.002245
0.0039
0.002123
0.000720002
0.001405
0.001403
0.002658
0.001742
0.00234
0.006288
0.004275
0.001442
0.001948
0.001863
4.00022e-05
0.000320002
0.001412
0.0
0.001605
0.002278
0.00342
0.00114
0.000293002
0.001593
0.0051
0.0
0.000610001
0.002718
0.003422
0.002695
0.002463
0.00711
0.004115
0.003583
0.004578
0.00184
0.002543
0.002798
0.002073
0.003295
0.00688
0.002615
0.004048
0.007098
0.00343
0.003063
0.004795
0.001653
0.002403
0.00511
0.002978
0.002508
0.00164
0.002455
0.004985
0.003665
0.005743
0.0049
0.005665
0.006373
0.00506
0.005255
0.008533
0.010257
0.011423
0.009835
0.00767
0.004445
0.006515
0.00922
0.008387
0.008738
0.01102
0.008878
0.00798
0.007435
0.005855
0.011168
0.009375
0.00904
0.011523
0.013815
0.011412
0.009995
0.01279
0.015283
0.016743
0.01446
0.011773
0.012237
0.01353
0.008513
0.01096
0.011925
0.010085
0.01193
0.011265
0.010295
0.010163
0.006053
0.007923
0.011465
0.007
0.010365
0.008818
0.00884
0.01228
0.013543
0.01393
0.015483
0.019985
0.020743
0.01788
0.01119
0.01601
0.01964
0.020448
0.022183
0.021353
0.019952
0.015563
0.011475
0.01172
0.012097
0.01068
0.010312
0.014162
0.01975
0.019653
0.014738
0.015775
0.01286
0.012765
0.01831
0.017475
0.019955
0.021505
0.01888
0.021585
0.022018
0.015488
0.01122
0.017265
0.01912
0.02103
0.027403
0.02567
0.02343
0.022808
0.025503
0.02359
0.023893
0.02641
0.029505
0.02877
0.030225
0.023165
0.0246
0.025135
0.026863
0.031895
0.034947
0.036064
0.036982
0.036729
0.035552
0.034474
0.03164
0.029038
0.031785
0.035114
0.035189
0.034172
0.034209
0.028813
0.023392
0.025428
0.024628
0.02195
0.022575
0.029835
0.034372
0.035347
0.037284
0.037402
0.036439
0.03606
0.034919
0.031661
0.033164
0.031606
0.029085
0.024765
0.022818
0.02525
0.02809
0.024763
0.02263
0.022153
0.02275
0.023947
0.024763
0.031599
0.034817
0.026865
0.022558
0.02844
0.029613
0.0288
0.031063
0.035622
0.036244
0.034632
0.033294
0.03187
0.031427
0.02961
0.027895
0.02409
0.02032
0.020508
0.02303
0.02279
0.023225
0.021697
0.02357
0.026892
0.02625
0.025265
0.026848
0.026398
0.026708
0.026443
0.025378
0.024383
0.020625
0.020398
0.019275
0.020655
0.02678
0.025715
0.022758
0.01881
0.019085
0.021483
0.024462
0.02512
0.024978
0.027132
0.026785
0.029163
0.02487
0.024155
0.023695
0.020415
0.018495
0.015978
0.01838
0.017015
0.01517
0.013305
0.016518
0.017165
0.01504
0.007955
0.00451
0.008188
0.011158
0.007532
0.007825
0.007565
0.006355
0.013045
0.013612
0.01088
0.009258
0.008695
0.007213
0.00782
0.003028
0.005853
0.006992
0.010183
0.006893
0.008273
0.010753
0.01038
0.010825
0.008677
0.005748
0.005885
0.008035
0.00799
0.008505
0.007055
0.005153
0.00693
0.01351
0.013578
0.005623
0.003653
0.001412
0.00292
0.005095
0.006675
0.005518
0.001622
0.001205
0.004153
0.0064
0.005785
0.007305
0.00331
0.003163
0.002505
0.003503
0.002095
0.002925
0.0
0.001388
0.00228
0.00272
0.001918
0.002238
0.004158
0.003978
0.00138
0.004698
0.004663
0.004635
0.00477
0.0038
0.00318
0.003248
0.001418
0.001415
0.000873003
0.000858001
0.001037
0.003463
0.003593
0.001888
0.004548
0.00309
0.001428
0.0
0.002645
0.005263
0.002875
0.001945
0.004453
0.003238
0.003465
0.000888001
0.000780001
0.003237
0.0
0.001483
0.001278
0.000658002
0.00396
0.00251
0.004128
0.007285
0.002668
0.000940003
0.000123002
0.002873
0.002405
0.004445
0.003135
0.001568
0.00196
0.000667002
0.003393
0.006853
0.002958
0.004825
0.004645
0.002433
0.000540003
0.001165
0.003353
0.002745
0.003773
0.002223
0.002458
0.003267
0.00279
0.003303
0.00355
0.003253
0.001657
0.00381
0.0031
0.00326
0.007415
0.004558
0.005385
0.00447
0.00498
0.004278
0.00571
0.0044
0.00535
0.002513
0.004585
0.005188
0.005415
0.000843003
0.001923
0.002643
0.003145
0.00316
0.002433
0.007198
0.006395
0.004425
0.004985
0.005003
0.006703
0.008793
0.005825
0.005568
0.006488
0.009953
0.007785
0.006625
0.007815
0.007885
0.012978
0.012338
0.0086
0.00519
0.005845
0.009008
0.010235
0.009948
0.010257
0.006982
0.00541
0.007532
0.008023
0.007445
0.011032
0.011368
0.01292
0.014895
0.01498
0.010345
0.01236
0.015337
0.01273
0.012705
0.010432
0.011338
0.008825
0.010825
0.011695
0.00825
0.011505
0.013182
0.014743
0.01312
0.013168
0.007295
0.008605
0.015835
0.013283
0.009748
0.009792
0.003305
0.005167
0.007148
0.012195
0.009393
0.008085
0.014353
0.012583
0.013833
0.017068
0.016163
0.017843
0.01776
0.016448
0.01652
0.017303
0.016903
0.015708
0.016038
0.015953
0.018785
0.018603
0.017988
0.018348
0.013065
0.018175
0.018598
0.019325
0.016945
0.023963
0.02475
0.018843
0.02347
0.024473
0.024173
0.0245
0.022775
0.02129
0.022882
0.021395
0.01922
0.021495
0.021858
0.021345
0.01842
0.022218
0.024205
0.023898
0.02769
0.03071
0.033189
0.028673
0.02558
0.027208
0.030385
0.03107
0.031653
0.028773
0.027878
0.028953
0.029563
0.027103
0.028033
0.02892
0.029758
0.028168
0.028127
0.02971
0.028228
0.027858
0.025553
0.023283
0.02057
0.02147
0.030433
0.029263
0.018973
0.018992
0.022215
0.01868
0.0185
0.02209
0.0262
0.03202
0.032682
0.035057
0.037311
0.036887
0.035849
0.033651
0.030295
0.027793
0.029673
0.027035
0.029625
0.032335
0.032653
0.028978
0.02576
0.02787
0.025057
0.02719
0.031436
0.034211
0.031985
0.033229
0.030808
0.026293
0.02705
0.029703
0.02869
0.028995
0.033149
0.033224
0.031583
0.032302
0.034677
0.036871
0.033994
0.033879
0.03403
0.032492
0.032366
0.03156
0.029475
0.02716
0.030323
0.02989
0.030088
0.03199
0.034327
0.03017
0.02859
0.028675
0.0242
0.02205
0.021578
0.024573
0.028177
0.017738
0.017945
0.020163
0.016948
0.01946
0.016065
0.01534
0.012322
0.018573
0.024155
0.018947
0.0148
0.015685
0.011805
0.015517
0.016008
0.01363
0.012748
0.023555
0.02262
0.010183
0.009762
0.00809
0.00924
0.012585
0.005398
0.00257
0.002253
0.00571
0.002463
0.00306
0.002628
0.00017
0.00481
0.015087
0.01796
0.01657
0.011268
0.01126
0.004663
0.007555
0.007925
0.001775
0.00927
0.007105
0.000540003
0.004738
0.004095
0.001183
0.002115
0.003023
0.00523
0.003238
0.002373
0.0016
0.000915002
0.00251
0.001435
0.000643
4.00022e-05
0.000465002
0.004688
0.001115
0.002333
0.00104
0.002828
0.003378
0.00355
0.003292
0.000320002
0.000788003
0.000708003
0.002038
0.00282
0.002333
0.003163
0.003145
0.002915
0.001908
0.005275
0.00439
0.003263
0.001888
0.000385001
0.000380002
0.000555001
0.004598
0.00638
0.004433
0.006563
0.003425
0.004033
0.002398
0.004065
0.004583
0.001688
0.00147
0.00215
0.006515
0.00166
0.00345
0.003812
0.001985
0.00225
0.001388
0.000115
0.0
0.000925001
0.002718
0.001848
0.00226
0.00397
0.00238
0.004505
0.002838
0.001678
0.005083
0.006665
0.006553
0.00346
0.005103
0.003215
0.005275
0.00383
0.00426
0.007298
0.00181
0.002115
0.002908
0.002453
0.001578
0.002518
0.003083
0.002798
0.001013
0.003763
0.002448
0.002838
0.00347
0.00253
0.002358
0.002828
0.002713
0.004025
0.002843
0.002278
0.00246
0.004315
0.003013
0.00352
0.003895
0.005068
0.004915
0.003633
0.004675
0.004818
0.00617
0.007023
0.00563
0.005418
0.005995
0.002733
0.003233
0.00309
0.003965
0.002063
0.00392
0.00718
0.002778
0.00444
0.008743
0.007798
0.010178
0.00687
0.00958
0.0108
0.008183
0.010408
0.010033
0.009603
0.009983
0.00942
0.009968
0.009093
0.007395
0.007428
0.005005
0.004833
0.00494
0.010343
0.011208
0.013615
0.010138
0.012145
0.01592
0.01615
0.012453
0.00875
0.00765
0.008423
0.012118
0.01091
0.010418
0.009318
0.012883
0.015538
0.014
0.013568
0.01062
0.012848
0.014288
0.01572
0.016093
0.014183
0.014783
0.01348
0.010085
0.01341
0.01436
0.014398
0.010133
0.01074
0.011275
0.010113
0.00421
0.005938
0.008613
0.01261
0.007043
0.008388
0.011755
0.01266
0.01723
0.020005
0.018298
0.018433
0.01882
0.017963
0.021378
0.02529
0.02396
0.024875
0.026748
0.022968
0.023193
0.022185
0.021353
0.019928
0.019338
0.021195
0.019053
0.021983
0.021568
0.02255
0.025505
0.024613
0.023928
0.022455
0.022605
0.024543
0.02517
0.02442
0.02239
0.022858
0.021268
0.026233
0.02837
0.02462
0.02365
0.026693
0.03231
0.032882
0.035047
0.034622
0.030615
0.032425
0.031973
0.027618
0.025103
0.025215
0.02557
0.026233
0.028573
0.031275
0.031056
0.029633
0.03015
0.028173
0.02665
0.03249
0.035202
0.03561
0.036014
0.036809
0.035197
0.033257
0.033489
0.034037
0.033577
0.032864
0.034807
0.035997
0.035397
0.03117
0.032949
0.029803
0.0272
0.03041
0.034229
0.03146
0.031508
0.033032
0.03251
0.031288
0.03276
0.034017
0.032389
0.032817
0.031328
0.032425
0.028845
0.03024
0.033354
0.033119
0.034537
0.033017
0.029355
0.027165
0.028838
0.030175
0.027393
0.030517
0.033789
0.033828
0.03191
0.027778
0.027208
0.028198
0.028635
0.028192
0.031413
0.032508
0.030362
0.029335
0.027265
0.028845
0.028175
0.026575
0.028503
0.02591
0.021975
0.019158
0.021645
0.020068
0.020268
0.029328
0.02269
0.010598
0.006295
0.012092
0.014718
0.016733
0.019783
0.022295
0.024588
0.02304
0.02096
0.019017
0.017653
0.021485
0.020278
0.017288
0.019138
0.022038
0.024395
0.022613
0.015653
0.01228
0.013965
0.01521
0.017663
0.015523
0.016585
0.02046
0.008525
0.007088
0.009955
0.00753
0.005508
0.012105
0.009457
0.007673
0.004528
0.003917
0.002233
0.002128
0.0
0.004168
0.00728
0.00623
0.006163
0.008045
0.006075
0.005573
0.005843
0.008703
0.005798
0.003068
0.003368
0.00637
0.005995
0.004138
0.003405
0.00791
0.00534
0.005123
0.00207
0.003748
0.00693
0.005095
0.00585
0.00717
0.004955
0.002035
0.005665
0.007098
0.00425
0.003683
0.006373
0.00745
0.006878
0.004088
0.004615
0.00637
0.00406
0.003512
0.003177
0.004525
0.003628
0.003533
0.001115
0.00214
0.00209
0.002928
0.003705
0.003758
0.00428
0.00176
0.000745002
0.004483
0.003553
0.004288
0.003848
0.004285
0.00514
0.000778001
0.002643
0.003098
0.001285
0.001088
0.000912003
0.001747
0.001663
0.001368
0.003693
0.005608
0.003773
0.002453
