297.34778
296.9811
295.7645
294.7211
294.91888
294.25336
293.8789
293.96448
294.5089
295.53778
296.60223
297.69113
297.87
298.7967
298.9989
299.43002
298.97003
298.03778
297.39447
297.5589
297.53113
298.1078
295.71555
294.17334
293.72
292.0011
292.6678
294.5
295.80002
296.4311
296.20004
294.67334
293.28445
292.26334
294.8922
295.81445
292.68558
292.18112
294.91113
297.82776
299.41443
298.95227
297.98557
298.18555
298.72446
298.1367
297.6711
299.02448
300.25333
301.2489
299.20444
299.67667
300.53778
300.97003
300.84113
300.48447
303.2667
304.4478
303.74222
302.76556
301.02225
300.2467
300.44556
301.43115
302.57333
302.24448
301.41333
301.74554
300.74225
302.35892
304.9233
305.12555
306.34113
306.08337
306.6478
306.7333
307.5589
307.06223
306.26334
305.32556
307.77335
309.58224
308.18445
306.86667
306.70227
306.5
305.53223
305.96445
306.76892
306.43445
306.9267
307.78445
308.3267
308.1
308.54553
308.14
308.33777
308.37112
308.0189
308.54
309.20557
309.83115
309.2367
309.39447
309.2311
309.4889
309.74667
309.8678
308.88223
308.43558
309.43112
310.25668
310.1967
309.02222
308.37222
307.53336
308.24335
309.07443
309.69336
309.29114
309.30554
308.21667
306.84222
307.37222
308.90222
309.3978
310.07224
309.80225
310.5011
311.3422
311.71222
311.30334
311.66666
309.80667
310.59335
311.45224
312.2489
312.49448
314.1456
313.49002
312.07443
311.49335
311.2811
311.16336
311.17557
310.97223
310.5767
311.03775
311.41998
311.85892
311.41333
311.56668
311.68555
312.06778
311.89
311.10336
310.47775
310.81888
310.04333
309.94223
309.28445
308.03555
306.46777
305.21335
303.36002
302.44333
301.68777
300.7822
300.6889
301.44223
302.80334
304.08444
305.43777
306.15887
306.1422
305.90112
305.7889
306.02332
305.0278
305.56113
305.68445
306.37665
306.44003
305.39664
304.21112
302.12335
302.1956
301.93665
301.84778
301.17557
301.24225
301.85
301.46332
301.59
302.44223
302.75333
302.50333
301.5389
301.7111
301.72778
301.61002
301.9989
302.0578
301.67334
301.97888
301.48334
301.52002
301.44885
301.06448
301.1289
301.0778
300.41226
300.01224
299.94
300.5189
301.07336
301.01224
300.8578
300.5622
300.25778
300.06113
299.9611
300.3689
300.17444
300.48
300.24112
300.15222
300.06335
300.10446
300.31445
300.54553
300.17334
300.42224
300.4511
299.98447
299.6611
299.80447
300.20224
299.8789
299.9256
300.22998
300.1578
300.15445
299.9911
300.42334
301.24557
301.29776
301.22888
301.38556
301.22778
301.4989
301.58002
301.27222
300.3622
299.58
300.22668
300.65778
300.06335
299.73334
299.83334
299.77112
299.7667
299.57224
299.6911
299.41336
299.3267
299.54224
300.31668
300.6067
300.59442
301.1178
301.0867
300.51443
301.1367
301.2633
300.33667
299.8822
299.19998
298.93112
298.86224
299.1278
299.93558
300.41443
300.5378
300.1411
298.33334
296.94888
296.62442
296.11334
296.59222
297.7022
298.2978
298.41782
298.65442
298.6389
298.5867
298.6322
298.31223
297.97
298.18335
298.50223
297.28778
296.5711
295.71555
296.71887
297.15887
296.72223
296.3722
295.40222
295.5789
296.40112
297.2478
298.07443
298.49225
298.44666
299.0722
298.9867
299.30222
299.41336
299.27667
298.42557
298.8611
299.7889
299.43222
298.86334
298.44666
298.56778
298.0867
297.3778
297.05554
297.22775
296.3911
296.19556
295.1789
295.6589
296.75446
296.44223
295.34778
295.93665
295.33667
294.99332
295.22668
295.32446
295.3689
295.57556
295.64334
295.99557
296.81332
297.70776
297.49225
297.5189
297.67444
297.97446
298.9678
297.4867
298.02112
298.0089
297.57
296.51556
295.17
293.02444
292.34778
294.96448
296.02557
298.22556
299.20554
