\relax 
\citation{zickfeld_thesis}
\citation{zickfeld_thesis}
\citation{petoukhov2000,petoukhov2003}
\@writefile{toc}{\contentsline {section}{\numberline {1}Introduction}{2}}
\@writefile{toc}{\contentsline {section}{\numberline {2}Model description}{2}}
\@writefile{toc}{\contentsline {subsection}{\numberline {2.1}Governing Equations}{3}}
\newlabel{eq:intq}{{2}{3}}
\newlabel{eq:t_z}{{8}{4}}
\newlabel{eq:gamma}{{9}{4}}
\newlabel{eq:pot_temp}{{10}{4}}
\newlabel{eq:nst}{{11}{4}}
\newlabel{eq:ncu}{{12}{4}}
\newlabel{eq:N}{{13}{4}}
\newlabel{eq:ncs}{{15}{5}}
\newlabel{eq:albedo}{{16}{5}}
\newlabel{eq:i_out}{{17}{5}}
\newlabel{eq:E}{{18}{5}}
\newlabel{eq:P}{{19}{5}}
\newlabel{eq:At}{{21}{5}}
\newlabel{eq:Aq}{{22}{5}}
\citation{kalnay96}
\@writefile{toc}{\contentsline {subsection}{\numberline {2.2}Inputs}{6}}
\@writefile{toc}{\contentsline {section}{\numberline {3}Simulation Experiments}{6}}
\citation{kalnay96}
\bibstyle{plainnat}
\bibdata{references}
\bibcite{kalnay96}{{1}{1996}{{Kalnay et~al.}}{{Kalnay, Kanamitsu, Kistler, Collins, Deaven, Gandin, Iredell, Saha, White, Woollen, Zhu, Leetmaa, Reynolds, Chelliah, Ebisuzaki, Higgins, Janowiak, Mo, Ropelewski, Wang, Jenne, and Joseph}}}
\bibcite{petoukhov2000}{{2}{2000}{{Petoukhov et~al.}}{{Petoukhov, Ganopolski, Brovkin, Claussen, Eliseev, Kubatzki, and Rahmstorf}}}
\bibcite{petoukhov2003}{{3}{2003}{{Petoukhov et~al.}}{{Petoukhov, Ganopolski, and Claussen}}}
\bibcite{zickfeld_thesis}{{4}{2003}{{Zickfeld}}{{}}}
\@writefile{toc}{\contentsline {subsection}{\numberline {3.1}Linearized Model}{7}}
\@writefile{toc}{\contentsline {section}{\numberline {4}Discussion \& Conclusion}{7}}
\@writefile{lot}{\contentsline {table}{\numberline {1}{\ignorespaces Fixed Parameters}}{8}}
\newlabel{table:const}{{1}{8}}
